[
    {
        "title": "Monitor - HP 24fw audio, 23.8\" FHD, 1920 x 1080, 5ms, IPS, Microborde, AMD FreeSync\u2122, HDMI",
        "price": 109.0,
        "brand": "HP",
        "p_n": "1451734",
        "model": "24fw audio",
        "size": 23.8,
        "resolution": "1920x1080",
        "resolution_values": {
            "X": 1920.0,
            "Y": 1080.0
        },
        "response_time": 5.0,
        "refresh_speed": 60.0,
        "url": "https://www.mediamarkt.es/es/product/_monitor-hp-24fw-audio-23-8-fhd-1920-x-1080-5ms-ips-microborde-amd-freesync%E2%84%A2-hdmi-1451734.html",
        "e_commerce": "MediaMarkt"
    },
    {
        "title": "Monitor - HP 27F, 27\" FHD, IPS, 5 ms, Micro-borde, Antireflectante, Ultradelgada, HDMI, VGA",
        "price": 189.0,
        "brand": "HP",
        "p_n": "1436667",
        "model": "27F",
        "size": 27.0,
        "resolution": "1920x1080",
        "resolution_values": {
            "X": 1920.0,
            "Y": 1080.0
        },
        "response_time": 5.0,
        "refresh_speed": 75.0,
        "url": "https://www.mediamarkt.es/es/product/_monitor-hp-27f-27-fhd-ips-5-ms-micro-borde-antireflectante-ultradelgada-hdmi-vga-1436667.html",
        "e_commerce": "MediaMarkt"
    },
    {
        "title": "Monitor - LG 27MK400H, 27\", 16.7 M de colores, Dynamic Action Sync",
        "price": 149.0,
        "brand": "LG ELECTRONICS",
        "p_n": "1434077",
        "model": "27MK400H",
        "size": 27.0,
        "resolution": "1920x1080",
        "resolution_values": {
            "X": 1920.0,
            "Y": 1080.0
        },
        "response_time": 2.0,
        "refresh_speed": 75.0,
        "url": "https://www.mediamarkt.es/es/product/_monitor-lg-27mk400h-27-16-7-m-de-colores-dynamic-action-sync-1434077.html",
        "e_commerce": "MediaMarkt"
    },
    {
        "title": "Monitor - Philips 223V5LHSB2/00, 22\" Full HD, 5ms, VESA, VGA, Conexi\u00f3n HDMI, Negro",
        "price": 76.99,
        "brand": "PHILIPS",
        "p_n": "1291685",
        "model": "223V5LHSB2/00",
        "size": 22.0,
        "resolution": "1920x1080",
        "resolution_values": {
            "X": 1920.0,
            "Y": 1080.0
        },
        "response_time": 5.0,
        "refresh_speed": 60.0,
        "url": "https://www.mediamarkt.es/es/product/_monitor-philips-223v5lhsb2-00-22-full-hd-5ms-vesa-vga-conexi%C3%B3n-hdmi-negro-1291685.html",
        "e_commerce": "MediaMarkt"
    },
    {
        "title": "Monitor - LG 24MK600M, 23.8\", FHD LED IPS, 5ms, HDMI, VGA,DVI",
        "price": 129.0,
        "brand": "LG ELECTRONICS",
        "p_n": "1446213",
        "model": "24MK600M",
        "size": 23.8,
        "resolution": "1920x1080",
        "resolution_values": {
            "X": 1920.0,
            "Y": 1080.0
        },
        "response_time": 5.0,
        "refresh_speed": 75.0,
        "url": "https://www.mediamarkt.es/es/product/_monitor-lg-24mk600m-23-8-fhd-led-ips-5ms-hdmi-vga-dvi-1446213.html",
        "e_commerce": "MediaMarkt"
    },
    {
        "title": "Monitor - Acer KA242Y, 23.8\", 1ms, Full HD 1920 x 1080, HDMI, FreeSync, 250 cd/m\u00b2, 75 Hz, IPS, Negro",
        "price": 119.0,
        "brand": "ACER",
        "p_n": "1469354",
        "model": "KA242Y",
        "size": 23.8,
        "resolution": "1920x1080",
        "resolution_values": {
            "X": 1920.0,
            "Y": 1080.0
        },
        "response_time": 1.0,
        "refresh_speed": 75.0,
        "url": "https://www.mediamarkt.es/es/product/_monitor-acer-ka242y-23-8-1ms-full-hd-1920-x-1080-hdmi-freesync-250-cd-m%C2%B2-75-hz-ips-negro-1469354.html",
        "e_commerce": "MediaMarkt"
    },
    {
        "title": "Monitor - LG 22MK600M-B, 21.5\", IPS Full HD, Modo lectura, Radeon FreeSync, OnScreen Control",
        "price": 89.0,
        "brand": "LG ELECTRONICS",
        "p_n": "1441561",
        "model": "22MK600M-B",
        "size": 21.5,
        "resolution": "1920x1080",
        "resolution_values": {
            "X": 1920.0,
            "Y": 1080.0
        },
        "response_time": 5.0,
        "refresh_speed": 75.0,
        "url": "https://www.mediamarkt.es/es/product/_monitor-lg-22mk600m-b-21-5-ips-full-hd-modo-lectura-radeon-freesync-onscreen-control-1441561.html",
        "e_commerce": "MediaMarkt"
    },
    {
        "title": "Monitor - HP 22fw, FHD 21,5\", 1920x1080, 5ms, IPS, Microborde, AMD FreeSync\u2122, HDMI",
        "price": 119.0,
        "brand": "HP",
        "p_n": "1433939",
        "model": "22fw",
        "size": 22.0,
        "resolution": "1920x1080",
        "resolution_values": {
            "X": 1920.0,
            "Y": 1080.0
        },
        "response_time": 5.0,
        "refresh_speed": 60.0,
        "url": "https://www.mediamarkt.es/es/product/_monitor-hp-22fw-fhd-21-5-1920x1080-5ms-ips-microborde-amd-freesync%E2%84%A2-hdmi-1433939.html",
        "e_commerce": "MediaMarkt"
    },
    {
        "title": "Monitor - LG 27MK600M-W, 27\" Full HD IPS LED, 5 ms, Radeon FreeSync\u2122, Negro y plata",
        "price": 139.0,
        "brand": "LG ELECTRONICS",
        "p_n": "1467282",
        "model": "27MK600M-W",
        "size": 27.0,
        "resolution": "1920x1080",
        "resolution_values": {
            "X": 1920.0,
            "Y": 1080.0
        },
        "response_time": 5.0,
        "refresh_speed": 60.0,
        "url": "https://www.mediamarkt.es/es/product/_monitor-lg-27mk600m-w-27-full-hd-ips-led-5-ms-radeon-freesync%E2%84%A2-negro-y-plata-1467282.html",
        "e_commerce": "MediaMarkt"
    },
    {
        "title": "Monitor - Philips 273V7QDSB/00, 27\" Full HD IPS, 5 ms, Flicker Free, Low Blue Mode, HDMI, Negro",
        "price": 140.0,
        "brand": "PHILIPS",
        "p_n": "1466206",
        "model": "273V7QDSB/00",
        "size": 27.0,
        "resolution": "1920x1080",
        "resolution_values": {
            "X": 1920.0,
            "Y": 1080.0
        },
        "response_time": 5.0,
        "refresh_speed": 60.0,
        "url": "https://www.mediamarkt.es/es/product/_monitor-philips-273v7qdsb-00-27-full-hd-ips-5-ms-flicker-free-low-blue-mode-hdmi-negro-1466206.html",
        "e_commerce": "MediaMarkt"
    },
    {
        "title": "Monitor - Acer KA272BI, 27\", 1ms, Full HD 1920 x 1080, HDMI, FreeSync, Negro",
        "price": 139.0,
        "brand": "ACER",
        "p_n": "1469355",
        "model": "KA272BI",
        "size": 27.0,
        "resolution": "1920x1080",
        "resolution_values": {
            "X": 1920.0,
            "Y": 1080.0
        },
        "response_time": 1.0,
        "refresh_speed": null,
        "url": "https://www.mediamarkt.es/es/product/_monitor-acer-ka272bi-27-1ms-full-hd-1920-x-1080-hdmi-freesync-negro-1469355.html",
        "e_commerce": "MediaMarkt"
    },
    {
        "title": "Monitor gaming - HP OMEN 25, 24.5\" Full HD, 144Hz, LED, HDMI, USB, Negro (Jack Black)",
        "price": 249.0,
        "brand": "HP",
        "p_n": "1378011",
        "model": "OMEN 25",
        "size": 25.0,
        "resolution": "1920x1080",
        "resolution_values": {
            "X": 1920.0,
            "Y": 1080.0
        },
        "response_time": 1.0,
        "refresh_speed": 144.0,
        "url": "https://www.mediamarkt.es/es/product/_monitor-gaming-hp-omen-25-24-5-full-hd-144hz-led-hdmi-usb-negro-jack-black-1378011.html",
        "e_commerce": "MediaMarkt"
    },
    {
        "title": "Monitor gaming - MSI Optix MAG271CP, 27\" FHD, Curvo, 1 ms, 144 Hz, Anti-Flicker, AMD FreeSync, Negro",
        "price": 349.0,
        "brand": "MSI",
        "p_n": "1461115",
        "model": "Optix MAG271CP",
        "size": 27.0,
        "resolution": "1920x1080",
        "resolution_values": {
            "X": 1920.0,
            "Y": 1080.0
        },
        "response_time": 1.0,
        "refresh_speed": 144.0,
        "url": "https://www.mediamarkt.es/es/product/_monitor-gaming-msi-optix-mag271cp-27-fhd-curvo-1-ms-144-hz-anti-flicker-amd-freesync-negro-1461115.html",
        "e_commerce": "MediaMarkt"
    },
    {
        "title": "Monitor - Acer EK240YABI, 23.8 \" Full-HD, 75 Hz, HDMI, 1 VGA, Negro",
        "price": 109.0,
        "brand": "ACER",
        "p_n": "1477913",
        "model": "EK240YABI",
        "size": 23.8,
        "resolution": "1920x1080",
        "resolution_values": {
            "X": 1920.0,
            "Y": 1080.0
        },
        "response_time": null,
        "refresh_speed": 75.0,
        "url": "https://www.mediamarkt.es/es/product/_monitor-acer-ek240yabi-23-8-full-hd-75-hz-hdmi-1-vga-negro-1477913.html",
        "e_commerce": "MediaMarkt"
    },
    {
        "title": "Monitor Gaming - Asus VG248QE, Gaming,24\", TN, FHD,144 Hz,1ms,350 nits, DisplayPort",
        "price": 177.65,
        "brand": "ASUS",
        "p_n": "1187193",
        "model": "VG248QE",
        "size": 24.0,
        "resolution": "1920x1080",
        "resolution_values": {
            "X": 1920.0,
            "Y": 1080.0
        },
        "response_time": 1.0,
        "refresh_speed": 144.0,
        "url": "https://www.mediamarkt.es/es/product/_monitor-gaming-asus-vg248qe-gaming-24-tn-fhd-144-hz-1ms-350-nits-displayport-1187193.html",
        "e_commerce": "MediaMarkt"
    },
    {
        "title": "Monitor - Philips 243V5LHAB, 23.6\", Full HD, HDMI y Altavoces est\u00e9reo",
        "price": 110.0,
        "brand": "PHILIPS",
        "p_n": "1229252",
        "model": "243V5LHAB",
        "size": 23.0,
        "resolution": "1920x1080",
        "resolution_values": {
            "X": 1920.0,
            "Y": 1080.0
        },
        "response_time": 1.0,
        "refresh_speed": 60.0,
        "url": "https://www.mediamarkt.es/es/product/_monitor-philips-243v5lhab-23-6-full-hd-hdmi-y-altavoces-est%C3%A9reo-1229252.html",
        "e_commerce": "MediaMarkt"
    },
    {
        "title": "Monitor gaming - HP 24x, 23.8\", Full HD, 1 ms, 144 Hz, Negro",
        "price": 209.0,
        "brand": "HP",
        "p_n": "1467147",
        "model": "24x",
        "size": 23.8,
        "resolution": "1920x1080",
        "resolution_values": {
            "X": 1920.0,
            "Y": 1080.0
        },
        "response_time": 1.0,
        "refresh_speed": 144.0,
        "url": "https://www.mediamarkt.es/es/product/_monitor-gaming-hp-24x-23-8-full-hd-1-ms-144-hz-negro-1467147.html",
        "e_commerce": "MediaMarkt"
    },
    {
        "title": "Monitor - Philips 223V5LSB2/10 Full HD",
        "price": 80.99,
        "brand": "PHILIPS",
        "p_n": "1231052",
        "model": "223V5LSB2/10",
        "size": 21.5,
        "resolution": "1920x1080",
        "resolution_values": {
            "X": 1920.0,
            "Y": 1080.0
        },
        "response_time": 5.0,
        "refresh_speed": 60.0,
        "url": "https://www.mediamarkt.es/es/product/_monitor-philips-223v5lsb2-10-full-hd-1231052.html",
        "e_commerce": "MediaMarkt"
    },
    {
        "title": "Monitor gaming - LG 24GL600F-B, 23.6\" Full HD, 16:9, 1 ms, 144 Hz, FreeSync, Negro",
        "price": 169.0,
        "brand": "LG ELECTRONICS",
        "p_n": "1465567",
        "model": "24GL600F-B",
        "size": 23.6,
        "resolution": "1920x1080",
        "resolution_values": {
            "X": 1920.0,
            "Y": 1080.0
        },
        "response_time": 1.0,
        "refresh_speed": 144.0,
        "url": "https://www.mediamarkt.es/es/product/_monitor-gaming-lg-24gl600f-b-23-6-full-hd-16-9-1-ms-144-hz-freesync-negro-1465567.html",
        "e_commerce": "MediaMarkt"
    },
    {
        "title": "Monitor gaming - LG 32QK500-C, 31.5\" QHD, 8 ms, 75 Hz, HDMI, FlickerSafe, Negro",
        "price": 253.0,
        "brand": "LG ELECTRONICS",
        "p_n": "1475907",
        "model": "32QK500-C",
        "size": 31.5,
        "resolution": "2560x1440",
        "resolution_values": {
            "X": 2560.0,
            "Y": 1440.0
        },
        "response_time": 8.0,
        "refresh_speed": 75.0,
        "url": "https://www.mediamarkt.es/es/product/_monitor-gaming-lg-32qk500-c-31-5-qhd-8-ms-75-hz-hdmi-flickersafe-negro-1475907.html",
        "e_commerce": "MediaMarkt"
    },
    {
        "title": "Monitor - Acer EK220QABI, 21.5\" Full-HD, 5 ms, 75 Hz, Negro",
        "price": 89.99,
        "brand": "ACER",
        "p_n": "1477911",
        "model": "EK220QABI",
        "size": 21.5,
        "resolution": "1920x1080",
        "resolution_values": {
            "X": 1920.0,
            "Y": 1080.0
        },
        "response_time": 5.0,
        "refresh_speed": 75.0,
        "url": "https://www.mediamarkt.es/es/product/_monitor-acer-ek220qabi-21-5-full-hd-5-ms-75-hz-negro-1477911.html",
        "e_commerce": "MediaMarkt"
    },
    {
        "title": "Monitor - AOC 22B1H, 21.5\" Full HD, 5 ms, HDMI, Negro",
        "price": 90.99,
        "brand": "AOC",
        "p_n": "1470059",
        "model": "22B1H",
        "size": 21.5,
        "resolution": "1920x1080",
        "resolution_values": {
            "X": 1920.0,
            "Y": 1080.0
        },
        "response_time": 5.0,
        "refresh_speed": 60.0,
        "url": "https://www.mediamarkt.es/es/product/_monitor-aoc-22b1h-21-5-full-hd-5-ms-hdmi-negro-1470059.html",
        "e_commerce": "MediaMarkt"
    },
    {
        "title": "Monitor - Acer Nitro, VG240YBMIIX, 23.8\", FHD, IPS, Negro",
        "price": 132.0,
        "brand": "ACER",
        "p_n": "1436352",
        "model": "Nitro",
        "size": 23.8,
        "resolution": "1920x1080",
        "resolution_values": {
            "X": 1920.0,
            "Y": 1080.0
        },
        "response_time": 1.0,
        "refresh_speed": 75.0,
        "url": "https://www.mediamarkt.es/es/product/_monitor-acer-nitro-vg240ybmiix-23-8-fhd-ips-negro-1436352.html",
        "e_commerce": "MediaMarkt"
    },
    {
        "title": "Monitor - Philips LCD TFT 193V5LSB2/10",
        "price": 89.0,
        "brand": "PHILIPS",
        "p_n": "1203656",
        "model": "193V5LSB2/10",
        "size": 19.0,
        "resolution": "1366x768",
        "resolution_values": {
            "X": 1366.0,
            "Y": 768.0
        },
        "response_time": 5.0,
        "refresh_speed": 60.0,
        "url": "https://www.mediamarkt.es/es/product/_monitor-philips-lcd-tft-193v5lsb2-10-1203656.html",
        "e_commerce": "MediaMarkt"
    },
    {
        "title": "Monitor gaming - LG 29UM69G-B, 29\", IPS, WFHD, USB-C Altavoces",
        "price": 199.0,
        "brand": "LG ELECTRONICS",
        "p_n": "1365243",
        "model": "g - LG 29UM69G-B",
        "size": 29.0,
        "resolution": "2560x1080",
        "resolution_values": {
            "X": 2560.0,
            "Y": 1080.0
        },
        "response_time": 1.0,
        "refresh_speed": 75.0,
        "url": "https://www.mediamarkt.es/es/product/_monitor-gaming-lg-29um69g-b-29-ips-wfhd-usb-c-altavoces-1365243.html",
        "e_commerce": "MediaMarkt"
    },
    {
        "title": "Monitor gaming - Samsung LS27E332HZO, 27\" Full HD, 1 ms, 75 Hz, HDMI, Negro",
        "price": 169.0,
        "brand": "SAMSUNG",
        "p_n": "1473819",
        "model": "LS27E332HZO",
        "size": 27.0,
        "resolution": "1920x1080",
        "resolution_values": {
            "X": 1920.0,
            "Y": 1080.0
        },
        "response_time": 1.0,
        "refresh_speed": 75.0,
        "url": "https://www.mediamarkt.es/es/product/_monitor-gaming-samsung-ls27e332hzo-27-full-hd-1-ms-75-hz-hdmi-negro-1473819.html",
        "e_commerce": "MediaMarkt"
    },
    {
        "title": "Monitor - Asus VS197DE, 18.5\", HD, D-Sub, Negro",
        "price": 58.64,
        "brand": "ASUS",
        "p_n": "1188567",
        "model": "VS197DE",
        "size": 18.5,
        "resolution": "1366x768",
        "resolution_values": {
            "X": 1366.0,
            "Y": 768.0
        },
        "response_time": 5.0,
        "refresh_speed": 75.0,
        "url": "https://www.mediamarkt.es/es/product/_monitor-asus-vs197de-18-5-hd-d-sub-negro-1188567.html",
        "e_commerce": "MediaMarkt"
    },
    {
        "title": "Monitor - Samsung C32F39MFUU, 32 \"  Full HD, 4ms, Curvo, 60 Hz, Negro",
        "price": 199.0,
        "brand": "SAMSUNG",
        "p_n": "1461702",
        "model": "C32F39MFUU",
        "size": 32.0,
        "resolution": "1920x1080",
        "resolution_values": {
            "X": 1920.0,
            "Y": 1080.0
        },
        "response_time": 4.0,
        "refresh_speed": 60.0,
        "url": "https://www.mediamarkt.es/es/product/_monitor-samsung-c32f39mfuu-32-full-hd-4ms-curvo-60-hz-negro-1461702.html",
        "e_commerce": "MediaMarkt"
    },
    {
        "title": "Monitor - Philips 272E1CA/00, 27\" Curvo FHD 1920 x 1080, FreeSync/AdptiveSync, FlickerFree, HDMI",
        "price": 191.0,
        "brand": "PHILIPS",
        "p_n": "1470073",
        "model": "272E1CA",
        "size": 27.0,
        "resolution": "1920x1080",
        "resolution_values": {
            "X": 1920.0,
            "Y": 1080.0
        },
        "response_time": 4.0,
        "refresh_speed": 75.0,
        "url": "https://www.mediamarkt.es/es/product/_monitor-philips-272e1ca-00-27-curvo-fhd-1920-x-1080-freesync-adptivesync-flickerfree-hdmi-1470073.html",
        "e_commerce": "MediaMarkt"
    },
    {
        "title": "Monitor gaming - Samsung C27RG50FQU Serie CRG50, 27\", Full HD, 4 ms, HDMI",
        "price": 296.0,
        "brand": "SAMSUNG",
        "p_n": "1461699",
        "model": "C27RG50FQU",
        "size": 27.0,
        "resolution": "1920x1080",
        "resolution_values": {
            "X": 1920.0,
            "Y": 1080.0
        },
        "response_time": 4.0,
        "refresh_speed": 240.0,
        "url": "https://www.mediamarkt.es/es/product/_monitor-gaming-samsung-c27rg50fqu-serie-crg50-27-full-hd-4-ms-hdmi-1461699.html",
        "e_commerce": "MediaMarkt"
    },
    {
        "title": "Monitor - : LG 27GL650F-B LED 27\", 1920 x 1080 Pixeles Full HD, Plana Mate Negro",
        "price": 279.0,
        "brand": "LG ELECTRONICS",
        "p_n": "1468201",
        "model": "27GL650F-B",
        "size": 27.0,
        "resolution": "1920x1080",
        "resolution_values": {
            "X": 1920.0,
            "Y": 1080.0
        },
        "response_time": 1.0,
        "refresh_speed": 60.0,
        "url": "https://www.mediamarkt.es/es/product/_monitor-lg-27gl650f-b-led-27-1920-x-1080-pixeles-full-hd-plana-mate-negro-1468201.html",
        "e_commerce": "MediaMarkt"
    },
    {
        "title": "Monitor - Acer R240Y, 23.8\", Full-HD, LED IPS, FreeSync, 1 ms, 75 HZ, VGA, HDMI, Plata",
        "price": 129.0,
        "brand": "ACER",
        "p_n": "1475801",
        "model": "R240Y",
        "size": 23.8,
        "resolution": "1920x1080",
        "resolution_values": {
            "X": 1920.0,
            "Y": 1080.0
        },
        "response_time": 1.0,
        "refresh_speed": 75.0,
        "url": "https://www.mediamarkt.es/es/product/_monitor-acer-r240y-23-8-full-hd-led-ips-freesync-1-ms-75-hz-vga-hdmi-plata-1475801.html",
        "e_commerce": "MediaMarkt"
    },
    {
        "title": "Monitor - Philips 276E9QJAB, 27\", IPS, AMD Freesync, Ultra Wide-Color, Negro y plateado",
        "price": 162.0,
        "brand": "PHILIPS",
        "p_n": "1406160",
        "model": "276E9QJAB",
        "size": 27.0,
        "resolution": "1920x1080",
        "resolution_values": {
            "X": 1920.0,
            "Y": 1080.0
        },
        "response_time": 5.0,
        "refresh_speed": 75.0,
        "url": "https://www.mediamarkt.es/es/product/_monitor-philips-276e9qjab-27-ips-amd-freesync-ultra-wide-color-negro-y-plateado-1406160.html",
        "e_commerce": "MediaMarkt"
    },
    {
        "title": "Monitor Gaming - Acer Kg271Bmiix/27P/FHD/Tn+Film/Negro",
        "price": 199.0,
        "brand": "ACER",
        "p_n": "1386181",
        "model": "",
        "size": 27.0,
        "resolution": "1920x1080",
        "resolution_values": {
            "X": 1920.0,
            "Y": 1080.0
        },
        "response_time": 1.0,
        "refresh_speed": 75.0,
        "url": "https://www.mediamarkt.es/es/product/_monitor-gaming-acer-kg271bmiix-27p-fhd-tn-film-negro-1386181.html",
        "e_commerce": "MediaMarkt"
    },
    {
        "title": "Monitor - Lenovo L24e 65DFKAC1EU, 23.8\", IPS, Full HD, 4 ms, 250 nits, HDMI, VGA, Negro",
        "price": 99.99,
        "brand": "LENOVO",
        "p_n": "1435061",
        "model": "L24e",
        "size": 24.0,
        "resolution": "1920x1080",
        "resolution_values": {
            "X": 1920.0,
            "Y": 1080.0
        },
        "response_time": 6.0,
        "refresh_speed": 60.0,
        "url": "https://www.mediamarkt.es/es/product/_monitor-lenovo-l24e-65dfkac1eu-23-8-ips-full-hd-4-ms-250-nits-hdmi-vga-negro-1435061.html",
        "e_commerce": "MediaMarkt"
    },
    {
        "title": "Monitor - AOC Q3279VWF, 31.5\" QHD, 2560x1440, LCD, MVA, 5ms, DVI, HDMI, Negro y plata",
        "price": 239.0,
        "brand": "AOC",
        "p_n": "1391777",
        "model": "Q3279VWF",
        "size": 32.0,
        "resolution": "2560x1440",
        "resolution_values": {
            "X": 2560.0,
            "Y": 1440.0
        },
        "response_time": 5.0,
        "refresh_speed": 60.0,
        "url": "https://www.mediamarkt.es/es/product/_monitor-aoc-q3279vwf-31-5-qhd-2560x1440-lcd-mva-5ms-dvi-hdmi-negro-y-plata-1391777.html",
        "e_commerce": "MediaMarkt"
    },
    {
        "title": "Monitor gaming - Samsung LC24RG50 24'', Curvo, Full HD, 4 ms, 144 Hz, Negro",
        "price": 179.0,
        "brand": "SAMSUNG",
        "p_n": "1452823",
        "model": "LC24RG",
        "size": 23.5,
        "resolution": "1920x1080",
        "resolution_values": {
            "X": 1920.0,
            "Y": 1080.0
        },
        "response_time": 4.0,
        "refresh_speed": 144.0,
        "url": "https://www.mediamarkt.es/es/product/_monitor-gaming-samsung-lc24rg50-24-curvo-full-hd-4-ms-144-hz-negro-1452823.html",
        "e_commerce": "MediaMarkt"
    },
    {
        "title": "Monitor LED - AOC Value E970SWN HD Panor\u00e1mico y 5ms",
        "price": 79.0,
        "brand": "AOC",
        "p_n": "1229345",
        "model": "E970SWN",
        "size": 18.5,
        "resolution": "1366x768",
        "resolution_values": {
            "X": 1366.0,
            "Y": 768.0
        },
        "response_time": 5.0,
        "refresh_speed": 76.0,
        "url": "https://www.mediamarkt.es/es/product/_monitor-led-aoc-value-e970swn-hd-panor%C3%A1mico-y-5ms-1229345.html",
        "e_commerce": "MediaMarkt"
    },
    {
        "title": "Monitor - Lenovo G24-10, 59.94 cm, 23.6\", 1920 x 1080, FHD, HDMI, DisplayPort, 1 ms, Negro",
        "price": 199.0,
        "brand": "LENOVO",
        "p_n": "1473980",
        "model": "G24-10",
        "size": 23.6,
        "resolution": "1920x1080",
        "resolution_values": {
            "X": 1920.0,
            "Y": 1080.0
        },
        "response_time": 1.0,
        "refresh_speed": 144.0,
        "url": "https://www.mediamarkt.es/es/product/_monitor-lenovo-g24-10-59-94-cm-23-6-1920-x-1080-fhd-hdmi-displayport-1-ms-negro-1473980.html",
        "e_commerce": "MediaMarkt"
    },
    {
        "title": "Monitor - LG 27UL850-W, PC, 68,6 cm, 27\", 4K Ultra HD LED, Blanco",
        "price": 489.0,
        "brand": "LG ELECTRONICS",
        "p_n": "1465570",
        "model": "27UL850-W",
        "size": 27.0,
        "resolution": "3840x2160",
        "resolution_values": {
            "X": 3840.0,
            "Y": 2160.0
        },
        "response_time": 5.0,
        "refresh_speed": 60.0,
        "url": "https://www.mediamarkt.es/es/product/_monitor-lg-27ul850-w-pc-68-6-cm-27-4k-ultra-hd-led-blanco-1465570.html",
        "e_commerce": "MediaMarkt"
    },
    {
        "title": "Monitor - Asus VZ279HE-W, 27\", FullHD, IPS, 5 ms, 250 nits, HDMI, Ultra Fino sin marco, Blanco",
        "price": 140.25,
        "brand": "ASUS",
        "p_n": "1394405",
        "model": "VZ279HE-W",
        "size": 27.0,
        "resolution": "1920x1080",
        "resolution_values": {
            "X": 1920.0,
            "Y": 1080.0
        },
        "response_time": 5.0,
        "refresh_speed": 75.0,
        "url": "https://www.mediamarkt.es/es/product/_monitor-asus-vz279he-w-27-fullhd-ips-5-ms-250-nits-hdmi-ultra-fino-sin-marco-blanco-1394405.html",
        "e_commerce": "MediaMarkt"
    },
    {
        "title": "Monitor - HP 20kd, 19.5 pulgadas, 1440 x 900 a 60Hz, LED, VGA, DVI",
        "price": 88.99,
        "brand": "HP",
        "p_n": "1332126",
        "model": "20kd",
        "size": 19.5,
        "resolution": "1440x900",
        "resolution_values": {
            "X": 1440.0,
            "Y": 900.0
        },
        "response_time": 8.0,
        "refresh_speed": 60.0,
        "url": "https://www.mediamarkt.es/es/product/_monitor-hp-20kd-19-5-pulgadas-1440-x-900-a-60hz-led-vga-dvi-1332126.html",
        "e_commerce": "MediaMarkt"
    },
    {
        "title": "Monitor - AOC Q3279VWFD8, 31.5\", FullHD 2560x1440, 250 cd/m\u00b2, WLED, HDMI, DP, Negro",
        "price": 235.0,
        "brand": "AOC",
        "p_n": "1439488",
        "model": "Q3279VWFD8",
        "size": 31.5,
        "resolution": "2560x1440",
        "resolution_values": {
            "X": 2560.0,
            "Y": 1440.0
        },
        "response_time": 5.0,
        "refresh_speed": 75.0,
        "url": "https://www.mediamarkt.es/es/product/_monitor-aoc-q3279vwfd8-31-5-fullhd-2560x1440-250-cd-m%C2%B2-wled-hdmi-dp-negro-1439488.html",
        "e_commerce": "MediaMarkt"
    },
    {
        "title": "Monitor - AOC 22V2Q, Full HD,21.5\", Plana, Negro",
        "price": 129.0,
        "brand": "AOC",
        "p_n": "1446087",
        "model": "22V2Q",
        "size": 21.5,
        "resolution": "1920x1080",
        "resolution_values": {
            "X": 1920.0,
            "Y": 1080.0
        },
        "response_time": 5.0,
        "refresh_speed": 75.0,
        "url": "https://www.mediamarkt.es/es/product/_monitor-aoc-22v2q-full-hd-21-5-plana-negro-1446087.html",
        "e_commerce": "MediaMarkt"
    },
    {
        "title": "Monitor de 23.8\" - AOC I2490VXQ/BT, Full HD, IPS",
        "price": 139.0,
        "brand": "AOC",
        "p_n": "1401880",
        "model": "I2490VXQ/BT",
        "size": 23.0,
        "resolution": "1920x1080",
        "resolution_values": {
            "X": 1920.0,
            "Y": 1080.0
        },
        "response_time": 4.0,
        "refresh_speed": null,
        "url": "https://www.mediamarkt.es/es/product/_monitor-de-23-8-aoc-i2490vxq-bt-full-hd-ips-1401880.html",
        "e_commerce": "MediaMarkt"
    },
    {
        "title": "Monitor - AOC 22B1HS, 21.5\" Full HD, IPS, 5 ms, Flicker Free, Low Blue Light, HDMI, Negro",
        "price": 99.99,
        "brand": "AOC",
        "p_n": "1470060",
        "model": "22B1H",
        "size": 21.5,
        "resolution": "1920x1080",
        "resolution_values": {
            "X": 1920.0,
            "Y": 1080.0
        },
        "response_time": 5.0,
        "refresh_speed": 60.0,
        "url": "https://www.mediamarkt.es/es/product/_monitor-aoc-22b1hs-21-5-full-hd-ips-5-ms-flicker-free-low-blue-light-hdmi-negro-1470060.html",
        "e_commerce": "MediaMarkt"
    },
    {
        "title": "Monitor gaming - Acer Predator XB271HU, 27\", TN Film, 2K, 1ms, 144Hz, Negro y rojo",
        "price": 499.0,
        "brand": "ACER",
        "p_n": "1335341",
        "model": "Predator XB271HU",
        "size": 27.0,
        "resolution": "2560x1440",
        "resolution_values": {
            "X": 2560.0,
            "Y": 1440.0
        },
        "response_time": 1.0,
        "refresh_speed": 144.0,
        "url": "https://www.mediamarkt.es/es/product/_monitor-gaming-acer-predator-xb271hu-27-tn-film-2k-1ms-144hz-negro-y-rojo-1335341.html",
        "e_commerce": "MediaMarkt"
    },
    {
        "title": "Monitor gaming - Lenovo Y27g Curved Gaming Monitor, 27\", Curvo, 1920x1080",
        "price": 269.0,
        "brand": "LENOVO",
        "p_n": "1348141",
        "model": "Y27g",
        "size": 27.0,
        "resolution": "1920x1080",
        "resolution_values": {
            "X": 1920.0,
            "Y": 1080.0
        },
        "response_time": 4.0,
        "refresh_speed": 144.0,
        "url": "https://www.mediamarkt.es/es/product/_monitor-gaming-lenovo-y27g-curved-gaming-monitor-27-curvo-1920x1080-1348141.html",
        "e_commerce": "MediaMarkt"
    },
    {
        "title": "Monitor - AOC E2270SWN, 21.5\", Full HD, LED, 1920 x 1080, Negro",
        "price": 99.0,
        "brand": "AOC",
        "p_n": "1249080",
        "model": "E2270SWN",
        "size": 21.5,
        "resolution": "1920x1080",
        "resolution_values": {
            "X": 1920.0,
            "Y": 1080.0
        },
        "response_time": 5.0,
        "refresh_speed": 60.0,
        "url": "https://www.mediamarkt.es/es/product/_monitor-aoc-e2270swn-21-5-full-hd-led-1920-x-1080-negro-1249080.html",
        "e_commerce": "MediaMarkt"
    },
    {
        "title": "Monitor - Samsung CRG9 C49RG90, Gaming, 49\", Curva, QLED, Negro",
        "price": 1099.0,
        "brand": "SAMSUNG",
        "p_n": "1453989",
        "model": "CRG9 C49RG90",
        "size": 49.0,
        "resolution": "5120x1440",
        "resolution_values": {
            "X": 5120.0,
            "Y": 1440.0
        },
        "response_time": 4.0,
        "refresh_speed": null,
        "url": "https://www.mediamarkt.es/es/product/_monitor-samsung-crg9-c49rg90-gaming-49-curva-qled-negro-1453989.html",
        "e_commerce": "MediaMarkt"
    },
    {
        "title": "Monitor - AOC I2481FXH, IPS, Full HD, 23.8 pulgadas",
        "price": 169.0,
        "brand": "AOC",
        "p_n": "1316804",
        "model": "I2481FXH",
        "size": 24.0,
        "resolution": null,
        "resolution_values": null,
        "response_time": 4.0,
        "refresh_speed": 76.0,
        "url": "https://www.mediamarkt.es/es/product/_monitor-aoc-i2481fxh-ips-full-hd-23-8-pulgadas-1316804.html",
        "e_commerce": "MediaMarkt"
    },
    {
        "title": "Monitor Gaming - ASUS VA326H, 31.5\", Full HD, VA, Curvo, 4 ms, 144Hz, Antiparpadeo, Negro",
        "price": 351.75,
        "brand": "ASUS",
        "p_n": "1373094",
        "model": "VA326H",
        "size": 31.5,
        "resolution": "1920x1080",
        "resolution_values": {
            "X": 1920.0,
            "Y": 1080.0
        },
        "response_time": 4.0,
        "refresh_speed": 144.0,
        "url": "https://www.mediamarkt.es/es/product/_monitor-gaming-asus-va326h-31-5-full-hd-va-curvo-4-ms-144hz-antiparpadeo-negro-1373094.html",
        "e_commerce": "MediaMarkt"
    },
    {
        "title": "Monitor gaming - Acer Nitro XF272UPBMIIPRZX, 27\" WQHD, 1ms, 144 Hz, 2 HDMI, Negro",
        "price": 379.0,
        "brand": "ACER",
        "p_n": "1479102",
        "model": "Nitro XF272UPBMIIPRZX",
        "size": 27.0,
        "resolution": "2560x1440",
        "resolution_values": {
            "X": 2560.0,
            "Y": 1440.0
        },
        "response_time": 1.0,
        "refresh_speed": 144.0,
        "url": "https://www.mediamarkt.es/es/product/_monitor-gaming-acer-nitro-xf272upbmiiprzx-27-wqhd-1ms-144-hz-2-hdmi-negro-1479102.html",
        "e_commerce": "MediaMarkt"
    },
    {
        "title": "Monitor gaming - Asus VG27BQ, 27\" WQHD, Panel TN, 0.4 ms, 165 Hz, HDMI, Negro",
        "price": 365.5,
        "brand": "ASUS",
        "p_n": "1471694",
        "model": "VG27BQ",
        "size": 27.0,
        "resolution": "2560x1440",
        "resolution_values": {
            "X": 2560.0,
            "Y": 1440.0
        },
        "response_time": 0.4,
        "refresh_speed": 165.0,
        "url": "https://www.mediamarkt.es/es/product/_monitor-gaming-asus-vg27bq-27-wqhd-panel-tn-0-4-ms-165-hz-hdmi-negro-1471694.html",
        "e_commerce": "MediaMarkt"
    },
    {
        "title": "Monitor gaming - Asus VP228QG, 21,5\", TN, FullHD, 1ms, Eye Care, antiparpadeo, Negro",
        "price": 102.85,
        "brand": "ASUS",
        "p_n": "1434109",
        "model": "VP228QG",
        "size": 22.0,
        "resolution": "1920x1080",
        "resolution_values": {
            "X": 1920.0,
            "Y": 1080.0
        },
        "response_time": 1.0,
        "refresh_speed": null,
        "url": "https://www.mediamarkt.es/es/product/_monitor-gaming-asus-vp228qg-21-5-tn-fullhd-1ms-eye-care-antiparpadeo-negro-1434109.html",
        "e_commerce": "MediaMarkt"
    },
    {
        "title": "Monitor gaming - Asus ROG Strix XG32VQ, Curvo, 31.5\", WQHD (3440x1440), 144 Hz, Negro y rojo",
        "price": 466.65,
        "brand": "ASUS",
        "p_n": "1388457",
        "model": "ROG Strix XG32VQ",
        "size": 31.5,
        "resolution": "2560x1440",
        "resolution_values": {
            "X": 2560.0,
            "Y": 1440.0
        },
        "response_time": 4.0,
        "refresh_speed": 144.0,
        "url": "https://www.mediamarkt.es/es/product/_monitor-gaming-asus-rog-strix-xg32vq-curvo-31-5-wqhd-3440x1440-144-hz-negro-y-rojo-1388457.html",
        "e_commerce": "MediaMarkt"
    },
    {
        "title": "Monitor gaming - Asus VG258QR, 24.5\" LED TN, Ful lHD, 0.5 ms, 165Hz, FreeSync, Negro",
        "price": 228.65,
        "brand": "ASUS",
        "p_n": "1471691",
        "model": "VG258QR",
        "size": 24.5,
        "resolution": "1920x1080",
        "resolution_values": {
            "X": 1920.0,
            "Y": 1080.0
        },
        "response_time": 0.5,
        "refresh_speed": 165.0,
        "url": "https://www.mediamarkt.es/es/product/_monitor-gaming-asus-vg258qr-24-5-led-tn-ful-lhd-0-5-ms-165hz-freesync-negro-1471691.html",
        "e_commerce": "MediaMarkt"
    },
    {
        "title": "Monitor - Asus ZenScreen MB16AC, IPS, 15.6\", Full HD, USB, Antiparpadeo, Filtro luz azul, Gris oscuro",
        "price": 225.25,
        "brand": "ASUS",
        "p_n": "1394418",
        "model": "ZenScreen MB16AC",
        "size": 15.6,
        "resolution": "1920x1080",
        "resolution_values": {
            "X": 1920.0,
            "Y": 1080.0
        },
        "response_time": 5.0,
        "refresh_speed": 60.0,
        "url": "https://www.mediamarkt.es/es/product/_monitor-asus-zenscreen-mb16ac-ips-15-6-full-hd-usb-antiparpadeo-filtro-luz-azul-gris-oscuro-1394418.html",
        "e_commerce": "MediaMarkt"
    },
    {
        "title": "Monitor -  Lenovo G25-10 62,2 cm, 24.5\" 1920 x 1080, Pixeles Full HD LED, Plana Negro",
        "price": 215.0,
        "brand": "LENOVO",
        "p_n": "1473981",
        "model": "-",
        "size": 24.5,
        "resolution": "1920x1080",
        "resolution_values": {
            "X": 1920.0,
            "Y": 1080.0
        },
        "response_time": 5.0,
        "refresh_speed": 63.0,
        "url": "https://www.mediamarkt.es/es/product/_monitor-lenovo-g25-10-62-2-cm-24-5-1920-x-1080-pixeles-full-hd-led-plana-negro-1473981.html",
        "e_commerce": "MediaMarkt"
    },
    {
        "title": "Monitor Gaming - Asus VP278QG, 27\", Full HD, 1ms, 75 Hz, Negro",
        "price": 158.95,
        "brand": "ASUS",
        "p_n": "1394407",
        "model": "VP278QG",
        "size": 27.0,
        "resolution": "1920x1080",
        "resolution_values": {
            "X": 1920.0,
            "Y": 1080.0
        },
        "response_time": 1.0,
        "refresh_speed": 75.0,
        "url": "https://www.mediamarkt.es/es/product/_monitor-gaming-asus-vp278qg-27-full-hd-1ms-75-hz-negro-1394407.html",
        "e_commerce": "MediaMarkt"
    },
    {
        "title": "Monitor - Asus VP229HAL, 21,5\", IPS, FullHD, 5ms, Eye Care, antiparpadeo, Negro",
        "price": 122.4,
        "brand": "ASUS",
        "p_n": "1394431",
        "model": "VP229HAL",
        "size": 21.5,
        "resolution": "1920x1080",
        "resolution_values": {
            "X": 1920.0,
            "Y": 1080.0
        },
        "response_time": 5.0,
        "refresh_speed": 60.0,
        "url": "https://www.mediamarkt.es/es/product/_monitor-asus-vp229hal-21-5-ips-fullhd-5ms-eye-care-antiparpadeo-negro-1394431.html",
        "e_commerce": "MediaMarkt"
    },
    {
        "title": "Monitor gaming - Lenovo G27c-10, 7\", VA Full HD 1920x1080, 6 ms, Curvo, 165 Hz, FreeSync, HDMI, DisplayPort",
        "price": 249.0,
        "brand": "LENOVO",
        "p_n": "1473984",
        "model": "G27c-10",
        "size": 27.0,
        "resolution": "1920x1080",
        "resolution_values": {
            "X": 1920.0,
            "Y": 1080.0
        },
        "response_time": 6.0,
        "refresh_speed": 165.0,
        "url": "https://www.mediamarkt.es/es/product/_monitor-gaming-lenovo-g27c-10-7-va-full-hd-1920x1080-6-ms-curvo-165-hz-freesync-hdmi-displayport-1473984.html",
        "e_commerce": "MediaMarkt"
    },
    {
        "title": "Monitor - Lenovo C22-10, 21.5\", 1920x1080 1xHDMI 1.4, FHD, Negro",
        "price": 98.99,
        "brand": "LENOVO",
        "p_n": "1446737",
        "model": "C22-10",
        "size": 21.5,
        "resolution": "1920x1080",
        "resolution_values": {
            "X": 1920.0,
            "Y": 1080.0
        },
        "response_time": null,
        "refresh_speed": null,
        "url": "https://www.mediamarkt.es/es/product/_monitor-lenovo-c22-10-21-5-1920x1080-1xhdmi-1-4-fhd-negro-1446737.html",
        "e_commerce": "MediaMarkt"
    },
    {
        "title": "Monitor - Asus PA279Q , 27\", WQHD, AH-IPS, HDMI, 49W, 1073.7M colores",
        "price": 668.25,
        "brand": "ASUS",
        "p_n": "1271228",
        "model": "PA279Q",
        "size": 27.0,
        "resolution": "2560x1440",
        "resolution_values": {
            "X": 2560.0,
            "Y": 1440.0
        },
        "response_time": 6.0,
        "refresh_speed": 86.0,
        "url": "https://www.mediamarkt.es/es/product/_monitor-asus-pa279q-27-wqhd-ah-ips-hdmi-49w-1073-7m-colores-1271228.html",
        "e_commerce": "MediaMarkt"
    },
    {
        "title": "Monitor gaming - Asus TUF Gaming VG35VQ, 35\", Curvo, LED UltraWide QuadHD, 1 ms, 100Hz, HDMI, Negro",
        "price": 509.15,
        "brand": "ASUS",
        "p_n": "1473541",
        "model": "VG35VQ",
        "size": 35.0,
        "resolution": "3440x1440",
        "resolution_values": {
            "X": 3440.0,
            "Y": 1440.0
        },
        "response_time": 1.0,
        "refresh_speed": 100.0,
        "url": "https://www.mediamarkt.es/es/product/_monitor-gaming-asus-tuf-gaming-vg35vq-35-curvo-led-ultrawide-quadhd-1-ms-100hz-hdmi-negro-1473541.html",
        "e_commerce": "MediaMarkt"
    },
    {
        "title": "Monitor Gaming - AOC AGON AG241QG, 23.8 Pulgadas, Wide Quad HD, 1MS",
        "price": 573.0,
        "brand": "AOC",
        "p_n": "1346769",
        "model": "AG241QG",
        "size": 24.0,
        "resolution": "2560x1440",
        "resolution_values": {
            "X": 2560.0,
            "Y": 1440.0
        },
        "response_time": 1.0,
        "refresh_speed": 60.0,
        "url": "https://www.mediamarkt.es/es/product/_monitor-gaming-aoc-agon-ag241qg-23-8-pulgadas-wide-quad-hd-1ms-1346769.html",
        "e_commerce": "MediaMarkt"
    },
    {
        "title": "Monitor gaming - Asus ROG Strix XG49VQ, 49\", ultrapanor\u00e1mico, 144Hz, 400 nits, FreeSync\u2122 2 HDR",
        "price": 764.15,
        "brand": "ASUS",
        "p_n": "1453765",
        "model": "ROG Strix XG49VQ",
        "size": 49.0,
        "resolution": "3840x1080",
        "resolution_values": {
            "X": 3840.0,
            "Y": 1080.0
        },
        "response_time": 4.0,
        "refresh_speed": 144.0,
        "url": "https://www.mediamarkt.es/es/product/_monitor-gaming-asus-rog-strix-xg49vq-49-ultrapanor%C3%A1mico-144hz-400-nits-freesync%E2%84%A2-2-hdr-1453765.html",
        "e_commerce": "MediaMarkt"
    },
    {
        "title": "Monitor Gaming - Asus ROG Strix XG258Q, 24.5\", Full HD, 240Hz, 1ms, Negro",
        "price": 353.6,
        "brand": "ASUS",
        "p_n": "1383443",
        "model": "XG258Q",
        "size": 25.0,
        "resolution": "1920x1080",
        "resolution_values": {
            "X": 1920.0,
            "Y": 1080.0
        },
        "response_time": 1.0,
        "refresh_speed": 240.0,
        "url": "https://www.mediamarkt.es/es/product/_monitor-gaming-asus-rog-strix-xg258q-24-5-full-hd-240hz-1ms-negro-1383443.html",
        "e_commerce": "MediaMarkt"
    },
    {
        "title": "Monitor Business - ASUS BE24AQLBH, 24.1\", HDMI, IPS, antiparpadeo, control luz azul, Negro",
        "price": 203.15,
        "brand": "ASUS",
        "p_n": "1394424",
        "model": "BE24AQLBH",
        "size": 24.1,
        "resolution": "1920x1200",
        "resolution_values": {
            "X": 1920.0,
            "Y": 1200.0
        },
        "response_time": 5.0,
        "refresh_speed": 60.0,
        "url": "https://www.mediamarkt.es/es/product/_monitor-business-asus-be24aqlbh-24-1-hdmi-ips-antiparpadeo-control-luz-azul-negro-1394424.html",
        "e_commerce": "MediaMarkt"
    },
    {
        "title": "Monitor - LG UltraWide 38WN75C, 38\" QHD+, 5 ms, 75 Hz, DPx1, HDMIx2, Auriculares, Negro",
        "price": 999.0,
        "brand": "LG ELECTRONICS",
        "p_n": "1477811",
        "model": "38WN75C",
        "size": 38.0,
        "resolution": "3840x1600",
        "resolution_values": {
            "X": 3840.0,
            "Y": 1600.0
        },
        "response_time": 5.0,
        "refresh_speed": 75.0,
        "url": "https://www.mediamarkt.es/es/product/_monitor-lg-ultrawide-38wn75c-38-qhd-5-ms-75-hz-dpx1-hdmix2-auriculares-negro-1477811.html",
        "e_commerce": "MediaMarkt"
    },
    {
        "title": "Monitor - LG 27MD5KL-B 27 \" 5120x2880 p\u00edxeles, 3 USB-C1 Thunderbolt 31 Salida de audio, Negro",
        "price": 1399.0,
        "brand": "LG ELECTRONICS",
        "p_n": "1471168",
        "model": "27MD5KL",
        "size": 27.0,
        "resolution": "5120x2880",
        "resolution_values": {
            "X": 5120.0,
            "Y": 2880.0
        },
        "response_time": 14.0,
        "refresh_speed": null,
        "url": "https://www.mediamarkt.es/es/product/_monitor-lg-27md5kl-b-27-5120x2880-p%C3%ADxeles-3-usb-c1-thunderbolt-31-salida-de-audio-negro-1471168.html",
        "e_commerce": "MediaMarkt"
    },
    {
        "title": "Monitor Gaming - Acer Predator Z321Q, 31.5\" Full HD, Curvo, Nvidia G-Sync, Negro y rojo",
        "price": 449.25,
        "brand": "ACER",
        "p_n": "1372750",
        "model": "Predator Z321Q",
        "size": 31.0,
        "resolution": "1920x1080",
        "resolution_values": {
            "X": 1920.0,
            "Y": 1080.0
        },
        "response_time": 4.0,
        "refresh_speed": 60.0,
        "url": "https://www.mediamarkt.es/es/product/_monitor-gaming-acer-predator-z321q-31-5-full-hd-curvo-nvidia-g-sync-negro-y-rojo-1372750.html",
        "e_commerce": "MediaMarkt"
    },
    {
        "title": "Monitor - LG 27MD5KL-B 27 \" 5120x2880 p\u00edxeles, 3 USB-C1 Thunderbolt 31 Salida de audio, Negro",
        "price": 1399.0,
        "brand": "LG ELECTRONICS",
        "p_n": "1471168",
        "model": "27MD5KL",
        "size": 27.0,
        "resolution": "5120x2880",
        "resolution_values": {
            "X": 5120.0,
            "Y": 2880.0
        },
        "response_time": 14.0,
        "refresh_speed": null,
        "url": "https://www.mediamarkt.es/es/product/_monitor-lg-27md5kl-b-27-5120x2880-p%C3%ADxeles-3-usb-c1-thunderbolt-31-salida-de-audio-negro-1471168.html",
        "e_commerce": "MediaMarkt"
    },
    {
        "title": "Monitor Gaming - Acer Predator Z321Q, 31.5\" Full HD, Curvo, Nvidia G-Sync, Negro y rojo",
        "price": 449.25,
        "brand": "ACER",
        "p_n": "1372750",
        "model": "Predator Z321Q",
        "size": 31.0,
        "resolution": "1920x1080",
        "resolution_values": {
            "X": 1920.0,
            "Y": 1080.0
        },
        "response_time": 4.0,
        "refresh_speed": 60.0,
        "url": "https://www.mediamarkt.es/es/product/_monitor-gaming-acer-predator-z321q-31-5-full-hd-curvo-nvidia-g-sync-negro-y-rojo-1372750.html",
        "e_commerce": "MediaMarkt"
    },
    {
        "title": "Monitor - Acer PREDATOR Z271T, Full HD, Curvo, Negro, LED, EyeTracking",
        "price": 449.25,
        "brand": "ACER",
        "p_n": "1372754",
        "model": "PREDATOR Z271T",
        "size": 27.0,
        "resolution": "1920x1080",
        "resolution_values": {
            "X": 1920.0,
            "Y": 1080.0
        },
        "response_time": 4.0,
        "refresh_speed": 60.0,
        "url": "https://www.mediamarkt.es/es/product/_monitor-acer-predator-z271t-full-hd-curvo-negro-led-eyetracking-1372754.html",
        "e_commerce": "MediaMarkt"
    },
    {
        "title": "Monitor gaming - AOC AG273QCX, 27\" QHD 2K, 4 ms, FreeSync, FlickerFree, LowBlue Mode, HDMI, Negro",
        "price": 479.0,
        "brand": "AOC",
        "p_n": "1471156",
        "model": "AG273QCX",
        "size": 27.0,
        "resolution": "2560x1440",
        "resolution_values": {
            "X": 2560.0,
            "Y": 1440.0
        },
        "response_time": 4.0,
        "refresh_speed": 144.0,
        "url": "https://www.mediamarkt.es/es/product/_monitor-gaming-aoc-ag273qcx-27-qhd-2k-4-ms-freesync-flickerfree-lowblue-mode-hdmi-negro-1471156.html",
        "e_commerce": "MediaMarkt"
    },
    {
        "title": "Monitor - Philips 328P6VUBREB, 31.5\" Ultra HD 4K, HDR, 4 ms, LowBlue, MultiView, USB-C, HDMI, Negro",
        "price": 599.0,
        "brand": "PHILIPS",
        "p_n": "1471158",
        "model": "328P6VUBREB",
        "size": 31.5,
        "resolution": "3840x2160",
        "resolution_values": {
            "X": 3840.0,
            "Y": 2160.0
        },
        "response_time": 4.0,
        "refresh_speed": 60.0,
        "url": "https://www.mediamarkt.es/es/product/_monitor-philips-328p6vubreb-31-5-ultra-hd-4k-hdr-4-ms-lowblue-multiview-usb-c-hdmi-negro-1471158.html",
        "e_commerce": "MediaMarkt"
    },
    {
        "title": "Monitor gaming - Acer Predator X35, 35 '' Curva VA QHD, 4 ms, 200 Hz, G-Sync Ultimate, Negro",
        "price": 2499.0,
        "brand": "ACER",
        "p_n": "1479104",
        "model": "Predator X35",
        "size": 35.0,
        "resolution": "3440x1440",
        "resolution_values": {
            "X": 3440.0,
            "Y": 1440.0
        },
        "response_time": 4.0,
        "refresh_speed": 200.0,
        "url": "https://www.mediamarkt.es/es/product/_monitor-gaming-acer-predator-x35-35-curva-va-qhd-4-ms-200-hz-g-sync-ultimate-negro-1479104.html",
        "e_commerce": "MediaMarkt"
    },
    {
        "title": "Monitor port\u00e1til - ASUS MB169B+, 15.6\", Full HD, IPS, ultrafino, giro autom\u00e1tico, Negro y Plata",
        "price": 169.15,
        "brand": "ASUS",
        "p_n": "1341044",
        "model": "MB169B+",
        "size": 15.6,
        "resolution": "1920x1080",
        "resolution_values": {
            "X": 1920.0,
            "Y": 1080.0
        },
        "response_time": 14.0,
        "refresh_speed": null,
        "url": "https://www.mediamarkt.es/es/product/_monitor-port%C3%A1til-asus-mb169b-15-6-full-hd-ips-ultrafino-giro-autom%C3%A1tico-negro-y-plata-1341044.html",
        "e_commerce": "MediaMarkt"
    },
    {
        "title": "Monitor - ASUS MB169C+, 15.6\", Full HD, IPS, Port\u00e1til, Negro y gris",
        "price": 187.0,
        "brand": "ASUS",
        "p_n": "1341043",
        "model": "MB169C+",
        "size": 16.0,
        "resolution": "1920x1080",
        "resolution_values": {
            "X": 1920.0,
            "Y": 1080.0
        },
        "response_time": 5.0,
        "refresh_speed": null,
        "url": "https://www.mediamarkt.es/es/product/_monitor-asus-mb169c-15-6-full-hd-ips-port%C3%A1til-negro-y-gris-1341043.html",
        "e_commerce": "MediaMarkt"
    },
    {
        "title": "Monitor profesional - Asus ProArt PA27AC, 27\", IPS,  WQHD,400 nits,5 ms,HDR-10,100% sRGB, \u0394E <lt/> 2",
        "price": 623.9,
        "brand": "ASUS",
        "p_n": "1394420",
        "model": "PA27AC",
        "size": 27.0,
        "resolution": "2560x1440",
        "resolution_values": {
            "X": 2560.0,
            "Y": 1440.0
        },
        "response_time": 5.0,
        "refresh_speed": 60.0,
        "url": "https://www.mediamarkt.es/es/product/_monitor-profesional-asus-proart-pa27ac-27-ips-wqhd-400-nits-5-ms-hdr-10-100-srgb-%CE%B4e-lt-2-1394420.html",
        "e_commerce": "MediaMarkt"
    },
    {
        "title": "Monitor gaming - Asus CG32UQ, 31.5\" UHD 4K, 5 ms, 4 x USB 3.0, 2 x USB Tipo A, 3 x HDMI (v2.0), Negro",
        "price": 679.15,
        "brand": "ASUS",
        "p_n": "1479330",
        "model": "CG32UQ",
        "size": 31.5,
        "resolution": "3840x2160",
        "resolution_values": {
            "X": 3840.0,
            "Y": 2160.0
        },
        "response_time": 5.0,
        "refresh_speed": null,
        "url": "https://www.mediamarkt.es/es/product/_monitor-gaming-asus-cg32uq-31-5-uhd-4k-5-ms-4-x-usb-3-0-2-x-usb-tipo-a-3-x-hdmi-v2-0-negro-1479330.html",
        "e_commerce": "MediaMarkt"
    },
    {
        "title": "Monitor gaming - Asus VP279QGL, 27\" Full HD, 5 ms, 75 Hz, FreeSync\u2122, Negro",
        "price": 220.15,
        "brand": "ASUS",
        "p_n": "1473545",
        "model": "VP279QGL",
        "size": 27.0,
        "resolution": "1920x1080",
        "resolution_values": {
            "X": 1920.0,
            "Y": 1080.0
        },
        "response_time": 5.0,
        "refresh_speed": 75.0,
        "url": "https://www.mediamarkt.es/es/product/_monitor-gaming-asus-vp279qgl-27-full-hd-5-ms-75-hz-freesync%E2%84%A2-negro-1473545.html",
        "e_commerce": "MediaMarkt"
    },
    {
        "title": "Monitor 24\" - ASUS, PA24AC 90LM04B0-B01370",
        "price": 385.9,
        "brand": "ASUS",
        "p_n": "1434098",
        "model": "90LM04B0-B01370",
        "size": 24.0,
        "resolution": "1920x1200",
        "resolution_values": {
            "X": 1920.0,
            "Y": 1200.0
        },
        "response_time": 5.0,
        "refresh_speed": null,
        "url": "https://www.mediamarkt.es/es/product/_monitor-24-asus-pa24ac-90lm04b0-b01370-1434098.html",
        "e_commerce": "MediaMarkt"
    },
    {
        "title": "Monitor - Samsung LC34J791WTUXEN, 32\", 4K UHD, Curvo, Thunderbolt 3, Aspecto 21:9, Gris",
        "price": 699.0,
        "brand": "SAMSUNG",
        "p_n": "1433219",
        "model": "LC34J791WTUXEN",
        "size": 34.0,
        "resolution": "3440x1440",
        "resolution_values": {
            "X": 3440.0,
            "Y": 1440.0
        },
        "response_time": 4.0,
        "refresh_speed": 100.0,
        "url": "https://www.mediamarkt.es/es/product/_monitor-samsung-lc34j791wtuxen-32-4k-uhd-curvo-thunderbolt-3-aspecto-21-9-gris-1433219.html",
        "e_commerce": "MediaMarkt"
    },
    {
        "title": "Monitor - Dell Ultrasharp UP2718Q, 27\", 4K, IPS, USB, Plateado y negro",
        "price": 1406.25,
        "brand": "DELL",
        "p_n": "1406631",
        "model": "UP2718Q",
        "size": 27.0,
        "resolution": "3840x2160",
        "resolution_values": {
            "X": 3840.0,
            "Y": 2160.0
        },
        "response_time": 6.0,
        "refresh_speed": 60.0,
        "url": "https://www.mediamarkt.es/es/product/_monitor-dell-ultrasharp-up2718q-27-4k-ips-usb-plateado-y-negro-1406631.html",
        "e_commerce": "MediaMarkt"
    },
    {
        "title": "Monitor - Samsung C32F391FWU, 31.5\", Curvo, Full HD, Blanco",
        "price": 219.0,
        "brand": "SAMSUNG",
        "p_n": "1326446",
        "model": "C32F391FWU",
        "size": 31.0,
        "resolution": "1920x1080",
        "resolution_values": {
            "X": 1920.0,
            "Y": 1080.0
        },
        "response_time": 4.0,
        "refresh_speed": 60.0,
        "url": "https://www.mediamarkt.es/es/product/_monitor-samsung-c32f391fwu-31-5-curvo-full-hd-blanco-1326446.html",
        "e_commerce": "MediaMarkt"
    },
    {
        "title": "Monitor - ASUS VP247NA, 23.6\", Full HD, VA, 5 ms, DVI, VGA, Eye Care, Negro",
        "price": 101.15,
        "brand": "ASUS",
        "p_n": "1465435",
        "model": "VP247NA",
        "size": 23.6,
        "resolution": "1920x1080",
        "resolution_values": {
            "X": 1920.0,
            "Y": 1080.0
        },
        "response_time": 5.0,
        "refresh_speed": 60.0,
        "url": "https://www.mediamarkt.es/es/product/_monitor-asus-vp247na-23-6-full-hd-va-5-ms-dvi-vga-eye-care-negro-1465435.html",
        "e_commerce": "MediaMarkt"
    },
    {
        "title": "Monitor gaming - Asus TUF Gaming VG35VQ, 35\", Curvo, LED UltraWide, QuadHD, 1ms, 100Hz, HDMI, Negro",
        "price": 828.75,
        "brand": "ASUS",
        "p_n": "1473547",
        "model": "TUF Gaming VG35VQ",
        "size": 34.0,
        "resolution": "3440x1440",
        "resolution_values": {
            "X": 3440.0,
            "Y": 1440.0
        },
        "response_time": 1.0,
        "refresh_speed": 60.0,
        "url": "https://www.mediamarkt.es/es/product/_monitor-gaming-asus-tuf-gaming-vg35vq-35-curvo-led-ultrawide-quadhd-1ms-100hz-hdmi-negro-1473547.html",
        "e_commerce": "MediaMarkt"
    },
    {
        "title": "Monitor - LG 27GL850-B LED 27\", USB, 2560 x 1440 Pixeles WQHD Plana Negro, Rojo",
        "price": 499.0,
        "brand": "LG ELECTRONICS",
        "p_n": "1468202",
        "model": "27GL850",
        "size": 27.0,
        "resolution": "2560x1440",
        "resolution_values": {
            "X": 2560.0,
            "Y": 1440.0
        },
        "response_time": 1.0,
        "refresh_speed": 144.0,
        "url": "https://www.mediamarkt.es/es/product/_monitor-lg-27gl850-b-led-27-usb-2560-x-1440-pixeles-wqhd-plana-negro-rojo-1468202.html",
        "e_commerce": "MediaMarkt"
    },
    {
        "title": "Monitor gaming - LENOVO Legion Y27gq-20, 27\" QHD, 1 ms, 165 Hz, 1 HDMI, Negro",
        "price": 569.99,
        "brand": "LENOVO",
        "p_n": "1468979",
        "model": "Legion Y27gq-20",
        "size": 27.0,
        "resolution": "2560x1440",
        "resolution_values": {
            "X": 2560.0,
            "Y": 1440.0
        },
        "response_time": 1.0,
        "refresh_speed": 165.0,
        "url": "https://www.mediamarkt.es/es/product/_monitor-gaming-lenovo-legion-y27gq-20-27-qhd-1-ms-165-hz-1-hdmi-negro-1468979.html",
        "e_commerce": "MediaMarkt"
    },
    {
        "title": "Monitor gaming - Lenovo Y27f, 27\", Curvo, Full HD",
        "price": 464.0,
        "brand": "LENOVO",
        "p_n": "1348142",
        "model": "Y27f",
        "size": 27.0,
        "resolution": "1920x1080",
        "resolution_values": {
            "X": 1920.0,
            "Y": 1080.0
        },
        "response_time": 4.0,
        "refresh_speed": 144.0,
        "url": "https://www.mediamarkt.es/es/product/_monitor-gaming-lenovo-y27f-27-curvo-full-hd-1348142.html",
        "e_commerce": "MediaMarkt"
    },
    {
        "title": "Monitor - AOC AG322QC4, 31.5\", Curvo, 4ms, QHD, HDMI, DisplayPort, Inclinable, 300 cd/m\u00b2, FreeSync2, Negro",
        "price": 488.0,
        "brand": "AOC",
        "p_n": "1471152",
        "model": "AG322QC4",
        "size": 31.5,
        "resolution": "2560x1440",
        "resolution_values": {
            "X": 2560.0,
            "Y": 1440.0
        },
        "response_time": 4.0,
        "refresh_speed": 144.0,
        "url": "https://www.mediamarkt.es/es/product/_monitor-aoc-ag322qc4-31-5-curvo-4ms-qhd-hdmi-displayport-inclinable-300-cd-m%C2%B2-freesync2-negro-1471152.html",
        "e_commerce": "MediaMarkt"
    },
    {
        "title": "Monitor - UltraSharp U2412M LED display 61 cm (24\") Full HD Plana Mate Negro",
        "price": 228.1,
        "brand": "DELL",
        "p_n": "1400229",
        "model": "itor",
        "size": 24.0,
        "resolution": "1920x1200",
        "resolution_values": {
            "X": 1920.0,
            "Y": 1200.0
        },
        "response_time": 8.0,
        "refresh_speed": 60.0,
        "url": "https://www.mediamarkt.es/es/product/_monitor-ultrasharp-u2412m-led-display-61-cm-24-full-hd-plana-mate-negro-1400229.html",
        "e_commerce": "MediaMarkt"
    },
    {
        "title": "Monitor - Asus MX32VQ, Curvo, 32\", WQHD, 4 ms, Sonido Harman Kardon, Gris espacio y Negro",
        "price": 407.15,
        "brand": "ASUS",
        "p_n": "1394398",
        "model": "MX32VQ",
        "size": 32.0,
        "resolution": "2560x1440",
        "resolution_values": {
            "X": 2560.0,
            "Y": 1440.0
        },
        "response_time": 4.0,
        "refresh_speed": 222.0,
        "url": "https://www.mediamarkt.es/es/product/_monitor-asus-mx32vq-curvo-32-wqhd-4-ms-sonido-harman-kardon-gris-espacio-y-negro-1394398.html",
        "e_commerce": "MediaMarkt"
    },
    {
        "title": "Monitor - LG 32QK500, 31.5\" QHD, IPS, 8 ms, HDMI, FlickerSafe, Blanco",
        "price": 299.0,
        "brand": "LG ELECTRONICS",
        "p_n": "1451195",
        "model": "32QK500",
        "size": 31.5,
        "resolution": "2560x1440",
        "resolution_values": {
            "X": 2560.0,
            "Y": 1440.0
        },
        "response_time": 8.0,
        "refresh_speed": 75.0,
        "url": "https://www.mediamarkt.es/es/product/_monitor-lg-32qk500-31-5-qhd-ips-8-ms-hdmi-flickersafe-blanco-1451195.html",
        "e_commerce": "MediaMarkt"
    },
    {
        "title": "Monitor gaming - Asus VG255H, 24TN\", TN, FullHD, 1ms, FreeSync, Eye Care, Antiparpadeo, Negro",
        "price": 209.1,
        "brand": "ASUS",
        "p_n": "1434097",
        "model": "VG255H",
        "size": 25.0,
        "resolution": "1920x1080",
        "resolution_values": {
            "X": 1920.0,
            "Y": 1080.0
        },
        "response_time": 1.0,
        "refresh_speed": 91.0,
        "url": "https://www.mediamarkt.es/es/product/_monitor-gaming-asus-vg255h-24tn-tn-fullhd-1ms-freesync-eye-care-antiparpadeo-negro-1434097.html",
        "e_commerce": "MediaMarkt"
    },
    {
        "title": "Monitor - LG 49WL95C, 49\", IPS, 5120 x 1440 Pixeles, UltraWide Quad HD, 350cd/m\u00b2, 60Hz, 5 ms, Blanco",
        "price": 1399.0,
        "brand": "LG ELECTRONICS",
        "p_n": "1454423",
        "model": "49WL95C",
        "size": 49.0,
        "resolution": "5120x1440",
        "resolution_values": {
            "X": 5120.0,
            "Y": 1440.0
        },
        "response_time": null,
        "refresh_speed": 60.0,
        "url": "https://www.mediamarkt.es/es/product/_monitor-lg-49wl95c-49-ips-5120-x-1440-pixeles-ultrawide-quad-hd-350cd-m%C2%B2-60hz-5-ms-blanco-1454423.html",
        "e_commerce": "MediaMarkt"
    },
    {
        "title": "Monitor - Asus VL279HE 27/1920X1080/5MS/75HZ, 1920 x 1080, Full HD, Negro",
        "price": 177.65,
        "brand": "ASUS",
        "p_n": "1471695",
        "model": "VL279HE 27/1920X1080/5MS/75HZ",
        "size": 27.0,
        "resolution": "1920x1080",
        "resolution_values": {
            "X": 1920.0,
            "Y": 1080.0
        },
        "response_time": 5.0,
        "refresh_speed": 75.0,
        "url": "https://www.mediamarkt.es/es/product/_monitor-asus-vl279he-27-1920x1080-5ms-75hz-1920-x-1080-full-hd-negro-1471695.html",
        "e_commerce": "MediaMarkt"
    },
    {
        "title": "Monitor gaming - ASUS VP348QGL, 34 '' QHD, 4 ms, 75 Hz, HDMI, Negro",
        "price": 454.75,
        "brand": "ASUS",
        "p_n": "1479329",
        "model": "VP348QGL",
        "size": 34.0,
        "resolution": "3440x1440",
        "resolution_values": {
            "X": 3440.0,
            "Y": 1440.0
        },
        "response_time": 4.0,
        "refresh_speed": 75.0,
        "url": "https://www.mediamarkt.es/es/product/_monitor-gaming-asus-vp348qgl-34-qhd-4-ms-75-hz-hdmi-negro-1479329.html",
        "e_commerce": "MediaMarkt"
    },
    {
        "title": "Monitor gaming - AOC AG273QCG, 27\", Curvo, 1 ms, QHD, HDMI, DisplayPort, 400cd/m\u00b2, 165 Hz, Nvidia G-Sync, Rojo",
        "price": 628.0,
        "brand": "AOC",
        "p_n": "1471157",
        "model": "AG273QCG",
        "size": 27.0,
        "resolution": "2560x1440",
        "resolution_values": {
            "X": 2560.0,
            "Y": 1440.0
        },
        "response_time": 1.0,
        "refresh_speed": 165.0,
        "url": "https://www.mediamarkt.es/es/product/_monitor-gaming-aoc-ag273qcg-27-curvo-1-ms-qhd-hdmi-displayport-400cd-m%C2%B2-165-hz-nvidia-g-sync-rojo-1471157.html",
        "e_commerce": "MediaMarkt"
    },
    {
        "title": "Monitor - DELL UltraSharp UP3017, 30\", IPS, W-LED, HDMI, 2560 x 1600 p\u00edxeles, Negro",
        "price": 943.5,
        "brand": "DELL",
        "p_n": "1436015",
        "model": "UP3017",
        "size": 30.0,
        "resolution": "2560x1600",
        "resolution_values": {
            "X": 2560.0,
            "Y": 1600.0
        },
        "response_time": 6.0,
        "refresh_speed": 60.0,
        "url": "https://www.mediamarkt.es/es/product/_monitor-dell-ultrasharp-up3017-30-ips-w-led-hdmi-2560-x-1600-p%C3%ADxeles-negro-1436015.html",
        "e_commerce": "MediaMarkt"
    },
    {
        "title": "Pantalla de 69.5\" - DELL C7017T, LED, Full HD",
        "price": 2393.25,
        "brand": "DELL",
        "p_n": "1391812",
        "model": "C7017T",
        "size": 69.5,
        "resolution": "1920x1080",
        "resolution_values": {
            "X": 1920.0,
            "Y": 1080.0
        },
        "response_time": 6.0,
        "refresh_speed": 75.0,
        "url": "https://www.mediamarkt.es/es/product/_pantalla-de-69-5-dell-c7017t-led-full-hd-1391812.html",
        "e_commerce": "MediaMarkt"
    }
]