========================================================
          Statistics of obtained information
========================================================
Total display information retrieved: 1081
Total display with wrong xpath: 181
Total display incomplete information: 289
Total display with refresh speed information: 289


Total display size information retrieved: 848
Total display resolution information retrieved: 871
Total display response_time information retrieved: 835
Total display refresh_speed information retrieved: 710


Display % obtained correct: 78.45%
Resolution % obtained correct: 80.57%
Response % obtained correct: 77.24%
Refresh % obtained correct: 65.68%
