
    ========================================================
              Statistics of obtained information
    ========================================================
    Total display information retrieved: 120
    Total display incomplete information: 120
    Discarded reconditioned displays: 3


    Total display name information retrieved: 0
    Total display brand information retrieved: 120
    Total display model information retrieved: 120
    Total display size information retrieved: 120
    Total display price information retrieved: 120
    Total display resolution information retrieved: 120
    Total display response_time information retrieved: 119
    Total display refresh_speed information retrieved: 114


    Display name % obtained correct: 0.00%
    Display model % obtained correct: 100.00%
    Display brand % obtained correct: 100.00%
    Price % obtained correct: 100.00%
    Display size % obtained correct: 100.00%
    Resolution % obtained correct: 100.00%
    Response % obtained correct: 99.17%
    Refresh % obtained correct: 95.00%


    [Displays without name]

        - name: None
          model: S24R350FHU
          brand: SAMSUNG
          url: https://www.mediamarkt.es/es/product/_monitor-samsung-s24r350fhu-23-8-led-full-hd-1920x1080-freesync-250-cd-m%C2%B2-5-ms-178%C2%BA-hdmi-plata-1473718.html

        - name: None
          model: 27F
          brand: HP
          url: https://www.mediamarkt.es/es/product/_monitor-hp-27f-27-fhd-ips-5-ms-micro-borde-antireflectante-ultradelgada-hdmi-vga-1436667.html

        - name: None
          model:  24fw audio
          brand: HP
          url: https://www.mediamarkt.es/es/product/_monitor-hp-24fw-audio-23-8-fhd-1920-x-1080-5ms-ips-microborde-amd-freesync%E2%84%A2-hdmi-1451734.html

        - name: None
          model: 223V5LHSB2/00
          brand: PHILIPS
          url: https://www.mediamarkt.es/es/product/_monitor-philips-223v5lhsb2-00-22-full-hd-5ms-vesa-vga-conexi%C3%B3n-hdmi-negro-1291685.html

        - name: None
          model: 27MK400H
          brand: LG ELECTRONICS
          url: https://www.mediamarkt.es/es/product/_monitor-lg-27mk400h-27-16-7-m-de-colores-dynamic-action-sync-1434077.html

        - name: None
          model: KA242Y
          brand: ACER
          url: https://www.mediamarkt.es/es/product/_monitor-acer-ka242y-23-8-1ms-full-hd-1920-x-1080-hdmi-freesync-250-cd-m%C2%B2-75-hz-ips-negro-1469354.html

        - name: None
          model:  S27R350FHU
          brand: SAMSUNG
          url: https://www.mediamarkt.es/es/product/_monitor-samsung-s27r350fhu-27-led-full-hd-1920x1080-freesync-250-cd-m%C2%B2-5-ms-178%C2%BA-hdmi-plata-1473719.html

        - name: None
          model: 24MK600M
          brand: LG ELECTRONICS
          url: https://www.mediamarkt.es/es/product/_monitor-lg-24mk600m-23-8-fhd-led-ips-5ms-hdmi-vga-dvi-1446213.html

        - name: None
          model: 22MK600M-B
          brand: LG ELECTRONICS
          url: https://www.mediamarkt.es/es/product/_monitor-lg-22mk600m-b-21-5-ips-full-hd-modo-lectura-radeon-freesync-onscreen-control-1441561.html

        - name: None
          model: C27R500FHU
          brand: SAMSUNG
          url: https://www.mediamarkt.es/es/product/_monitor-samsung-lc27r500fhuxen-27-full-hd-curvo-va-lcd-4-ms-freesync-flicker-free-negro-1470245.html

        - name: None
          model: 24GL600F-B
          brand: LG ELECTRONICS
          url: https://www.mediamarkt.es/es/product/_monitor-gaming-lg-24gl600f-b-23-6-full-hd-16-9-1-ms-144-hz-freesync-negro-1465567.html

        - name: None
          model: 248E9QHSB
          brand: PHILIPS
          url: https://www.mediamarkt.es/es/product/_monitor-philips-e-line-248e9qhsb-24-full-hd-curvo-hdmi-vga-lcd-negro-1467206.html

        - name: None
          model:  KA272BI
          brand: ACER
          url: https://www.mediamarkt.es/es/product/_monitor-acer-ka272bi-27-1ms-full-hd-1920-x-1080-hdmi-freesync-negro-1469355.html

        - name: None
          model: g - LG 27MP59G
          brand: LG ELECTRONICS
          url: https://www.mediamarkt.es/es/product/_monitor-gaming-lg-27mp59g-27-full-hd-ips-negro-1365241.html

        - name: None
          model:  VS197DE
          brand: ASUS
          url: https://www.mediamarkt.es/es/product/_monitor-asus-vs197de-18-5-hd-d-sub-negro-1188567.html

        - name: None
          model: R241YBWMIX
          brand: ACER
          url: https://www.mediamarkt.es/es/product/_monitor-acer-r241ybwmix-23-8-full-hd-ips-1-ms-vga-hdmi-1x-hdmi-in-negro-1475800.html

        - name: None
          model: 24x
          brand: HP
          url: https://www.mediamarkt.es/es/product/_monitor-gaming-hp-24x-23-8-full-hd-1-ms-144-hz-negro-1467147.html

        - name: None
          model:  Optix MAG271CP
          brand: MSI
          url: https://www.mediamarkt.es/es/product/_monitor-gaming-msi-optix-mag271cp-27-fhd-curvo-1-ms-144-hz-anti-flicker-amd-freesync-negro-1461115.html

        - name: None
          model:  Q24i
          brand: LENOVO
          url: https://www.mediamarkt.es/es/product/_monitor-lenovo-q24i-23-8-ips-fullhd-amd-freesync-4-ms-hdmi-negro-y-plata-1468989.html

        - name: None
          model:  VP247HAE
          brand: ASUS
          url: https://www.mediamarkt.es/es/product/_monitor-asus-vp247hae-23-6-panel-va-led-full-hd-5ms-hdmi-vga-eye-care-negro-1434106.html

        - name: None
          model: LS27E332HZO
          brand: SAMSUNG
          url: https://www.mediamarkt.es/es/product/_monitor-gaming-samsung-ls27e332hzo-27-full-hd-1-ms-75-hz-hdmi-negro-1473819.html

        - name: None
          model: C27RG50FQU
          brand: SAMSUNG
          url: https://www.mediamarkt.es/es/product/_monitor-gaming-samsung-c27rg50fqu-serie-crg50-27-full-hd-4-ms-hdmi-1461699.html

        - name: None
          model:  Q3279VWF
          brand: AOC
          url: https://www.mediamarkt.es/es/product/_monitor-aoc-q3279vwf-31-5-qhd-2560x1440-lcd-mva-5ms-dvi-hdmi-negro-y-plata-1391777.html

        - name: None
          model: 32QK500-C
          brand: LG ELECTRONICS
          url: https://www.mediamarkt.es/es/product/_monitor-gaming-lg-32qk500-c-31-5-qhd-8-ms-75-hz-hdmi-flickersafe-negro-1475907.html

        - name: None
          model: 193V5LSB2/10
          brand: PHILIPS
          url: https://www.mediamarkt.es/es/product/_monitor-philips-lcd-tft-193v5lsb2-10-1203656.html

        - name: None
          model: VG248QE
          brand: ASUS
          url: https://www.mediamarkt.es/es/product/_monitor-gaming-asus-vg248qe-gaming-24-tn-fhd-144-hz-1ms-350-nits-displayport-1187193.html

        - name: None
          model:  ED242QR
          brand: ACER
          url: https://www.mediamarkt.es/es/product/_monitor-gaming-acer-ed242qr-23-6-led-va-full-hd-4-ms-144-hz-freesync-hdmi-negro-1475804.html

        - name: None
          model: 24B1XHS
          brand: AOC
          url: https://www.mediamarkt.es/es/product/_monitor-aoc-24b1xhs-24-ips-fhd-ips-vga-hdmi-brillo-250-cd-m2-sin-marcos-negro-1470062.html

        - name: None
          model:  R240Y
          brand: ACER
          url: https://www.mediamarkt.es/es/product/_monitor-acer-r240y-23-8-full-hd-led-ips-freesync-1-ms-75-hz-vga-hdmi-plata-1475801.html

        - name: None
          model: 
          brand: PHILIPS
          url: https://www.mediamarkt.es/es/product/_monitor-philips-243v5lhsb-23-6-full-hd-1920-x-1080-hdmi-vga-dvi-negro-1304627.html

        - name: None
          model: 22B1H
          brand: AOC
          url: https://www.mediamarkt.es/es/product/_monitor-aoc-22b1hs-21-5-full-hd-ips-5-ms-flicker-free-low-blue-light-hdmi-negro-1470060.html

        - name: None
          model: EK240YABI
          brand: ACER
          url: https://www.mediamarkt.es/es/product/_monitor-acer-ek240yabi-23-8-full-hd-75-hz-hdmi-1-vga-negro-1477913.html

        - name: None
          model: 27UL650-W
          brand: LG ELECTRONICS
          url: https://www.mediamarkt.es/es/product/_monitor-profesional-lg-27ul650-w-27-ips-68-58-cm-blanco-1465569.html

        - name: None
          model: g - LG 25UM58-P 
          brand: LG ELECTRONICS
          url: https://www.mediamarkt.es/es/product/_monitor-gaming-lg-25um58-p-25-2560x1080-5ms-ips-21-9-negro-1321019.html

        - name: None
          model:  Optix MAG321CURV
          brand: MSI
          url: https://www.mediamarkt.es/es/product/_monitor-curvo-msi-optix-mag321curv-31-5-uhd-negro-1461562.html

        - name: None
          model: g - LG 27GK750F
          brand: LG ELECTRONICS
          url: https://www.mediamarkt.es/es/product/_monitor-gaming-lg-27gk750f-27-pulgadas-full-hd-2-ms-motion-blur-reduction-freesync-negro-1393852.html

        - name: None
          model: EK220QABI
          brand: ACER
          url: https://www.mediamarkt.es/es/product/_monitor-acer-ek220qabi-21-5-full-hd-5-ms-75-hz-negro-1477911.html

        - name: None
          model: 27UL850-W
          brand: LG ELECTRONICS
          url: https://www.mediamarkt.es/es/product/_monitor-lg-27ul850-w-pc-68-6-cm-27-4k-ultra-hd-led-blanco-1465570.html

        - name: None
          model: 27MK600M-W
          brand: LG ELECTRONICS
          url: https://www.mediamarkt.es/es/product/_monitor-lg-27mk600m-w-27-full-hd-ips-led-5-ms-radeon-freesync%E2%84%A2-negro-y-plata-1467282.html

        - name: None
          model:  243V5LHAB
          brand: PHILIPS
          url: https://www.mediamarkt.es/es/product/_monitor-philips-243v5lhab-23-6-full-hd-hdmi-y-altavoces-est%C3%A9reo-1229252.html

        - name: None
          model: E2270SWHN
          brand: AOC
          url: https://www.mediamarkt.es/es/product/_monitor-aoc-e2270swhn-full-hd-21-5-pulgadas-1316799.html

        - name: None
          model: VG279Q
          brand: ASUS
          url: https://www.mediamarkt.es/es/product/_monitor-gaming-asus-vg279q-27-led-ips-full-hd-1-ms-144-hz-freesync-negro-1471693.html

        - name: None
          model: g - LG 29UM69G-B
          brand: LG ELECTRONICS
          url: https://www.mediamarkt.es/es/product/_monitor-gaming-lg-29um69g-b-29-ips-wfhd-usb-c-altavoces-1365243.html

        - name: None
          model: VG27BQ
          brand: ASUS
          url: https://www.mediamarkt.es/es/product/_monitor-gaming-asus-vg27bq-27-wqhd-panel-tn-0-4-ms-165-hz-hdmi-negro-1471694.html

        - name: None
          model: Optix MAG27C
          brand: MSI
          url: https://www.mediamarkt.es/es/product/_monitor-gaming-msi-optix-mag27c-27-full-hd-1-ms-curvo-hdmi-negro-1399861.html

        - name: None
          model: 27Uk670- B 27
          brand: LG ELECTRONICS
          url: https://www.mediamarkt.es/es/product/_monitor-lg-27uk670-b-27-27-ips-68-6-cm-negro-1465566.html

        - name: None
          model: 34GL750
          brand: LG ELECTRONICS
          url: https://www.mediamarkt.es/es/product/_monitor-gaming-lg-34gl750-b-34-led-ultrawide-fullhd-144hz-freesync-curva-negro-1468203.html

        - name: None
          model: 22V2Q
          brand: AOC
          url: https://www.mediamarkt.es/es/product/_monitor-aoc-22v2q-full-hd-21-5-plana-negro-1446087.html

        - name: None
          model: ED320QRPBIIPX
          brand: ACER
          url: https://www.mediamarkt.es/es/product/_monitor-gaming-acer-ed320qrpbiipx-32-fullhd-curvo-5-ms-165-hz-led-sin-parpadeo-negro-1475806.html

        - name: None
          model: E970SWN
          brand: AOC
          url: https://www.mediamarkt.es/es/product/_monitor-led-aoc-value-e970swn-hd-panor%C3%A1mico-y-5ms-1229345.html

        - name: None
          model: Y27g
          brand: LENOVO
          url: https://www.mediamarkt.es/es/product/_monitor-gaming-lenovo-y27g-curved-gaming-monitor-27-curvo-1920x1080-1348141.html

        - name: None
          model: L24Q-30
          brand: LENOVO
          url: https://www.mediamarkt.es/es/product/_monitor-lenovo-l24q-30-23-8-qhd-ips-4ms-300cd-m2-hdmi-negro-1473982.html

        - name: None
          model:  CRG9 C49RG90
          brand: SAMSUNG
          url: https://www.mediamarkt.es/es/product/_monitor-samsung-crg9-c49rg90-gaming-49-curva-qled-negro-1453989.html

        - name: None
          model:  245C7QJSB/00
          brand: PHILIPS
          url: https://www.mediamarkt.es/es/product/_monitor-de-23-8-philips-245c7qjsb-00-1920x1080-full-hd-wled-negro-1387281.html

        - name: None
          model: 34WK95U-W
          brand: LG ELECTRONICS
          url: https://www.mediamarkt.es/es/product/_monitor-lg-34wk95u-w-34-4k-uhd-600-cd-m%C2%B2-10-w-1434078.html

        - name: None
          model: ED270RPBIIPX
          brand: ACER
          url: https://www.mediamarkt.es/es/product/_monitor-gaming-acer-ed270rpbiipx-27-fullhd-curvo-5-ms-165-hz-1x-displayport-1-2-2x-hdmi-1-4-negro-1475805.html

        - name: None
          model:  Legion Y44W
          brand: LENOVO
          url: https://www.mediamarkt.es/es/product/_monitor-lenovo-legion-y44w-43-4-curvo-3840-x-1200-144-hz-4-ms-amd-freesync-2-negro-1469009.html

        - name: None
          model: Q3279VWFD8
          brand: AOC
          url: https://www.mediamarkt.es/es/product/_monitor-aoc-q3279vwfd8-31-5-fullhd-2560x1440-250-cd-m%C2%B2-wled-hdmi-dp-negro-1439488.html

        - name: None
          model: 27GL650F-B
          brand: LG ELECTRONICS
          url: https://www.mediamarkt.es/es/product/_monitor-lg-27gl650f-b-led-27-1920-x-1080-pixeles-full-hd-plana-mate-negro-1468201.html

        - name: None
          model: SA220QAbi
          brand: ACER
          url: https://www.mediamarkt.es/es/product/_monitor-acer-sa220qabi-21-5-full-hd-4-ms-freesync-zeroframe-hdmi-negro-1463651.html

        - name: None
          model:  C32Q-20
          brand: LENOVO
          url: https://www.mediamarkt.es/es/product/_monitor-lenovo-c32q-20-32-qhd-2560-x-1440-px-4-ms-75-hz-negro-1468999.html

        - name: None
          model:  G24-10
          brand: LENOVO
          url: https://www.mediamarkt.es/es/product/_monitor-lenovo-g24-10-59-94-cm-23-6-1920-x-1080-fhd-hdmi-displayport-1-ms-negro-1473980.html

        - name: None
          model: MG279Q
          brand: ASUS
          url: https://www.mediamarkt.es/es/product/_asus-asus-mg279q-27in-led-2560x1440-16-9-4m-1327615.html

        - name: None
          model:  I2790PQU/BT
          brand: AOC
          url: https://www.mediamarkt.es/es/product/_monitor-aoc-i2790pqu-bt-27-fhd-ips-4ms-flicker-free-altavoces-integrados-hdmi-usb-plata-1403951.html

        - name: None
          model: g - LG 34UM69G-B
          brand: LG ELECTRONICS
          url: https://www.mediamarkt.es/es/product/_monitor-gaming-lg-34um69g-b-34-ultra-hd-ips-conector-usb-tipo-c-1365244.html

        - name: None
          model: 
          brand: PHILIPS
          url: https://www.mediamarkt.es/es/product/_monitor-philips-4k-ultraclear-uhd-brilliance-288p6ljeb-con-mhl-y-displayport-1244803.html

        - name: None
          model: CQ32G1
          brand: AOC
          url: https://www.mediamarkt.es/es/product/_monitor-gaming-aoc-cq32g1-32-curvo-qhd-2560-x-1440-va-1ms-freesync-negro-1470066.html

        - name: None
          model:  OMEN 25
          brand: HP
          url: https://www.mediamarkt.es/es/product/_monitor-gaming-hp-omen-25-24-5-full-hd-144hz-led-hdmi-usb-negro-jack-black-1378011.html

        - name: None
          model:  Nitro
          brand: ACER
          url: https://www.mediamarkt.es/es/product/_monitor-acer-nitro-vg240ybmiix-23-8-fhd-ips-negro-1436352.html

        - name: None
          model: PB278QV
          brand: ASUS
          url: https://www.mediamarkt.es/es/product/_monitor-asus-pb278qv-27-wqhd-ips-5-ms-16-9-led-178%C2%BA-hdmi-displayport-250-cd-m2-negro-1473546.html

        - name: None
          model: PG279QE
          brand: ASUS
          url: https://www.mediamarkt.es/es/product/_monitor-gaming-asus-pg279qe-27-wqhd-ips-4-ms-16-9-hdmi-g-sync-displayport-flicker-free-negro-1473543.html

        - name: None
          model: PS341WU
          brand: MSI
          url: https://www.mediamarkt.es/es/product/_monitor-msi-prestige-ps341wu-34-wuhd-4k-led-nano-ips-8-ms-60hz-blanco-1470170.html

        - name: None
          model:  E2270SWN
          brand: AOC
          url: https://www.mediamarkt.es/es/product/_monitor-aoc-e2270swn-21-5-full-hd-led-1920-x-1080-negro-1249080.html

        - name: None
          model:  I2490VXQ/BT
          brand: AOC
          url: https://www.mediamarkt.es/es/product/_monitor-de-23-8-aoc-i2490vxq-bt-full-hd-ips-1401880.html

        - name: None
          model:  328P6VUBREB
          brand: PHILIPS
          url: https://www.mediamarkt.es/es/product/_monitor-philips-328p6vubreb-31-5-ultra-hd-4k-hdr-4-ms-lowblue-multiview-usb-c-hdmi-negro-1471158.html

        - name: None
          model:  NITRO VG270
          brand: ACER
          url: https://www.mediamarkt.es/es/product/_monitor-gaming-acer-nitro-vg270-27-full-hd-ips-1ms-hdmi-vga-negro-y-rojo-1436713.html

        - name: None
          model: PA279Q
          brand: ASUS
          url: https://www.mediamarkt.es/es/product/_monitor-asus-pa279q-27-wqhd-ah-ips-hdmi-49w-1073-7m-colores-1271228.html

        - name: None
          model:  ROG Strix XG32VQ
          brand: ASUS
          url: https://www.mediamarkt.es/es/product/_monitor-gaming-asus-rog-strix-xg32vq-curvo-31-5-wqhd-3440x1440-144-hz-negro-y-rojo-1388457.html

        - name: None
          model: ProLite B1780SD-B1
          brand: IIYAMA
          url: https://www.mediamarkt.es/es/product/_monitor-iiyama-prolite-b1780sd-b1-17-hd-tn-5-ms-led-dvi-acr-vesa-altavoz-inclinable-negro-1473535.html

        - name: None
          model: 272B7QPTKEB/00
          brand: PHILIPS
          url: https://www.mediamarkt.es/es/product/_monitor-philips-272b7qptkeb-00-27-2560x1440-qhd-webcam-negro-1387283.html

        - name: None
          model:  Predator CG437KP
          brand: ACER
          url: https://www.mediamarkt.es/es/product/_monitor-gaming-acer-predator-cg437kp-43-va-uhd-4k-1-ms-144-hz-nvidia-g-sync-negro-1479103.html

        - name: None
          model:  B326HKA
          brand: ACER
          url: https://www.mediamarkt.es/es/product/_monitor-acer-b326hka-32-4k-ultra-hd-ips-para-pc-gris-oscuro-1316986.html

        - name: None
          model:  CB Serie
          brand: ACER
          url: https://www.mediamarkt.es/es/product/_monitor-acer-cb-serie-cb1-cb271hk-27-ips-resoluci%C3%B3n-4k-uhd-negro-1316991.html

        - name: None
          model:  ProLite XU2290HS-B1
          brand: IIYAMA
          url: https://www.mediamarkt.es/es/product/_monitor-iiyama-prolite-xu2290hs-b1-24-full-hd-tn-1-ms-16-9-vga-hdmi-negro-1473534.html

        - name: None
          model: ProLite XU2290HS-B1
          brand: IIYAMA
          url: https://www.mediamarkt.es/es/product/_monitor-iiyama-prolite-xu2290hs-b1-22-full-hd-ips-5-ms-16-9-dvi-negro-1473533.html

        - name: None
          model: ED323QUR
          brand: ACER
          url: https://www.mediamarkt.es/es/product/_monitor-acer-ed323qurwidpx-80cm-31-5-in-tft-mntr-led-curvo-blanco-1469488.html

        - name: None
          model: -
          brand: LENOVO
          url: https://www.mediamarkt.es/es/product/_monitor-lenovo-g25-10-62-2-cm-24-5-1920-x-1080-pixeles-full-hd-led-plana-negro-1473981.html

        - name: None
          model:  20kd
          brand: HP
          url: https://www.mediamarkt.es/es/product/_monitor-hp-20kd-19-5-pulgadas-1440-x-900-a-60hz-led-vga-dvi-1332126.html

        - name: None
          model: 43UN700-B
          brand: LG ELECTRONICS
          url: https://www.mediamarkt.es/es/product/_monitor-lg-43un700-b-108-cm-42-5-uhd-4k-8-ms-60-hz-negro-1477812.html

        - name: None
          model: 22B1H
          brand: AOC
          url: https://www.mediamarkt.es/es/product/_monitor-aoc-22b1h-21-5-full-hd-5-ms-hdmi-negro-1470059.html

        - name: None
          model: UP2718Q
          brand: DELL
          url: https://www.mediamarkt.es/es/product/_monitor-dell-ultrasharp-up2718q-27-4k-ips-usb-plateado-y-negro-1406631.html

        - name: None
          model: VA326H
          brand: ASUS
          url: https://www.mediamarkt.es/es/product/_monitor-gaming-asus-va326h-31-5-full-hd-va-curvo-4-ms-144hz-antiparpadeo-negro-1373094.html

        - name: None
          model: 
          brand: ACER
          url: https://www.mediamarkt.es/es/product/_monitor-gaming-acer-kg271bmiix-27p-fhd-tn-film-negro-1386181.html

        - name: None
          model:  Monitor De
          brand: AOC
          url: https://www.mediamarkt.es/es/product/_aoc-monitor-de-27-aoci2790vq-bt-full-hd-ips-1401884.html

        - name: None
          model:  G2460VQ6
          brand: AOC
          url: https://www.mediamarkt.es/es/product/_monitor-gaming-aoc-g2460vq6-full-hd-1ms-24-1309839.html

        - name: None
          model:  K2 SERIE
          brand: ACER
          url: https://www.mediamarkt.es/es/product/_monitor-acer-k2-serie-k242hqlcbid-full-hd-23-6-full-hd-negro-1312269.html

        - name: None
          model: TUF Gaming VG35VQ
          brand: ASUS
          url: https://www.mediamarkt.es/es/product/_monitor-gaming-asus-tuf-gaming-vg35vq-35-curvo-led-ultrawide-quadhd-1ms-100hz-hdmi-negro-1473547.html

        - name: None
          model: Nitro XF272UPBMIIPRZX
          brand: ACER
          url: https://www.mediamarkt.es/es/product/_monitor-gaming-acer-nitro-xf272upbmiiprzx-27-wqhd-1ms-144-hz-2-hdmi-negro-1479102.html

        - name: None
          model: 38WN75C
          brand: LG ELECTRONICS
          url: https://www.mediamarkt.es/es/product/_monitor-lg-ultrawide-38wn75c-38-qhd-5-ms-75-hz-dpx1-hdmix2-auriculares-negro-1477811.html

        - name: None
          model: I1601FWUX
          brand: AOC
          url: https://www.mediamarkt.es/es/product/_monitor-aoc-i1601fwux-15-6-full-hd-ips-negro-1471146.html

        - name: None
          model:  27V2Q
          brand: AOC
          url: https://www.mediamarkt.es/es/product/_monitor-aoc-27v2q-27-full-hd-led-ips-freesync-negro-1471144.html

        - name: None
          model: 32GK650F-B
          brand: LG ELECTRONICS
          url: https://www.mediamarkt.es/es/product/_monitor-gaming-lg-32gk650f-b-31-5-led-freesync-16-9-hdmi-negro-1465564.html

        - name: None
          model:  KG241QS
          brand: ACER
          url: https://www.mediamarkt.es/es/product/_monitor-gaming-acer-kg241qs-23-6-tn-led-full-hd-1-ms-165-hz-freesync-hdmi-negro-1475807.html

        - name: None
          model:  Y27f
          brand: LENOVO
          url: https://www.mediamarkt.es/es/product/_monitor-gaming-lenovo-y27f-27-curvo-full-hd-1348142.html

        - name: None
          model: AG272FCX6
          brand: AOC
          url: https://www.mediamarkt.es/es/product/_monitor-gaming-aoc-ag272fcx6-27-fullhd-curvo-ga-displayport-hdmi-3-55mm-250-cd-m%C2%B2-freesync-negro-1471151.html

        - name: None
          model:  AG322QC4
          brand: AOC
          url: https://www.mediamarkt.es/es/product/_monitor-aoc-ag322qc4-31-5-curvo-4ms-qhd-hdmi-displayport-inclinable-300-cd-m%C2%B2-freesync2-negro-1471152.html

        - name: None
          model: AG352QCX
          brand: AOC
          url: https://www.mediamarkt.es/es/product/_monitor-gaming-aoc-ag352qcx-35-fullhd-curvo-4-ms-hdmi-displayport-dvi-usb-300-cd-m%C2%B2-freesync-1471153.html

        - name: None
          model: AG241QG
          brand: AOC
          url: https://www.mediamarkt.es/es/product/_monitor-gaming-aoc-agon-ag241qg-23-8-pulgadas-wide-quad-hd-1ms-1346769.html

        - name: None
          model: U3277FWQ
          brand: AOC
          url: https://www.mediamarkt.es/es/product/_aoc-u3277fwq-31-5p-wled-hdmi-1387875.html

        - name: None
          model: PV270
          brand: BENQ
          url: https://www.mediamarkt.es/es/product/_monitor-benq-pv270-27-2k-ips-5ms-rec-709-dci-p3-negro-1393141.html

        - name: None
          model:  Predator Z321Q
          brand: ACER
          url: https://www.mediamarkt.es/es/product/_monitor-gaming-acer-predator-z321q-31-5-full-hd-curvo-nvidia-g-sync-negro-y-rojo-1372750.html

        - name: None
          model: itor
          brand: DELL
          url: https://www.mediamarkt.es/es/product/_monitor-ultrasharp-u2412m-led-display-61-cm-24-full-hd-plana-mate-negro-1400229.html

        - name: None
          model:  PREDATOR Z271T
          brand: ACER
          url: https://www.mediamarkt.es/es/product/_monitor-acer-predator-z271t-full-hd-curvo-negro-led-eyetracking-1372754.html

        - name: None
          model:  Predator XB271HU
          brand: ACER
          url: https://www.mediamarkt.es/es/product/_monitor-gaming-acer-predator-xb271hu-27-tn-film-2k-1ms-144hz-negro-y-rojo-1335341.html

        - name: None
          model: AG273QCX
          brand: AOC
          url: https://www.mediamarkt.es/es/product/_monitor-gaming-aoc-ag273qcx-27-qhd-2k-4-ms-freesync-flickerfree-lowblue-mode-hdmi-negro-1471156.html

        - name: None
          model: LS24H650GDU
          brand: SAMSUNG
          url: https://www.mediamarkt.es/es/product/_monitor-samsung-ls24h650gduen-23-8-wuxga-hdmi-led-pls-negro-1433217.html

        - name: None
          model: Predator X35
          brand: ACER
          url: https://www.mediamarkt.es/es/product/_monitor-gaming-acer-predator-x35-35-curva-va-qhd-4-ms-200-hz-g-sync-ultimate-negro-1479104.html

        - name: None
          model: G27c-10
          brand: LENOVO
          url: https://www.mediamarkt.es/es/product/_monitor-gaming-lenovo-g27c-10-7-va-full-hd-1920x1080-6-ms-curvo-165-hz-freesync-hdmi-displayport-1473984.html

        - name: None
          model: UP3017
          brand: DELL
          url: https://www.mediamarkt.es/es/product/_monitor-dell-ultrasharp-up3017-30-ips-w-led-hdmi-2560-x-1600-p%C3%ADxeles-negro-1436015.html

        - name: None
          model: C7017T
          brand: DELL
          url: https://www.mediamarkt.es/es/product/_pantalla-de-69-5-dell-c7017t-led-full-hd-1391812.html


    [Displays without refresh speed]

        - name: None
          model:  KA272BI
          brand: ACER
          url: https://www.mediamarkt.es/es/product/_monitor-acer-ka272bi-27-1ms-full-hd-1920-x-1080-hdmi-freesync-negro-1469355.html

        - name: None
          model: R241YBWMIX
          brand: ACER
          url: https://www.mediamarkt.es/es/product/_monitor-acer-r241ybwmix-23-8-full-hd-ips-1-ms-vga-hdmi-1x-hdmi-in-negro-1475800.html

        - name: None
          model:  CRG9 C49RG90
          brand: SAMSUNG
          url: https://www.mediamarkt.es/es/product/_monitor-samsung-crg9-c49rg90-gaming-49-curva-qled-negro-1453989.html

        - name: None
          model:  I2490VXQ/BT
          brand: AOC
          url: https://www.mediamarkt.es/es/product/_monitor-de-23-8-aoc-i2490vxq-bt-full-hd-ips-1401880.html

        - name: None
          model:  B326HKA
          brand: ACER
          url: https://www.mediamarkt.es/es/product/_monitor-acer-b326hka-32-4k-ultra-hd-ips-para-pc-gris-oscuro-1316986.html

        - name: None
          model: ED323QUR
          brand: ACER
          url: https://www.mediamarkt.es/es/product/_monitor-acer-ed323qurwidpx-80cm-31-5-in-tft-mntr-led-curvo-blanco-1469488.html


    [Displays without response time]

        - name: None
          model: EK240YABI
          brand: ACER
          url: https://www.mediamarkt.es/es/product/_monitor-acer-ek240yabi-23-8-full-hd-75-hz-hdmi-1-vga-negro-1477913.html
